{
  "extends": ["tslint:recommended", "tslint-react", "tslint-config-prettier"],
  "rules": {
    "array-type": [true, "array"],
    "arrow-parens": false,
    "arrow-return-shorthand": [false],
    "comment-format": [true, "check-space"],
    "interface-over-type-literal": false,
    "interface-name": false,
    "max-line-length": [true, {
      "limit": 140,         
      "ignore-pattern": "^import |^export {(.*?)}" 
    }],
    "member-access": false,
    "member-ordering": [true, { "order": "fields-first" }],
    "newline-before-return": false,
    "no-unused-expression": [true, "allow-fast-null-checks"],
    "no-any": false,
    "no-empty-interface": false,
    "no-import-side-effect": [
      true,
      { "ignore-module": "(\\.scss|css|jest-enzyme)$" }
    ],
    "no-inferrable-types": [true, "ignore-params", "ignore-properties"],
    "no-invalid-this": [true, "check-function-in-method"],
    "no-null-keyword": false,
    "no-require-imports": false,
    "no-submodule-imports": [
      true,
      "@src",
      "antd",
      "uuid",
      "react-app-polyfill",
      "@testing-library"
    ],
    "no-this-assignment": [true, { "allow-destructuring": true }],
    "no-trailing-whitespace": [true, "ignore-comments"],
    "object-literal-sort-keys": false,
    "object-literal-shorthand": false,
    "one-variable-per-declaration": [false],
    "only-arrow-functions": [true, "allow-declarations"],
    "ordered-imports": [
      true,
      {
        "import-sources-order": "any",
        "named-imports-order": "any",
        "grouped-imports": true
      }
    ],
    "prefer-method-signature": false,
    "prefer-template": [true, "allow-single-concat"],
    "quotemark": [true, "single", "jsx-double", "avoid-escape"],
    "semicolon": [true, "always", "ignore-bound-class-methods"],
    "trailing-comma": [
      false,
      {
        "singleline": "never",
        "multiline": {
          "objects": "always",
          "arrays": "always",
          "functions": "never",
          "typeLiterals": "ignore"
        },
        "esSpecCompliant": true
      }
    ],
    "triple-equals": [true, "allow-null-check"],
    "type-literal-delimiter": true,
    "typedef": [true, "parameter", "property-declaration"],
    "variable-name": [
      true,
      "ban-keywords",
      "check-format",
      "allow-pascal-case",
      "allow-leading-underscore"
    ],
    "jsx-no-lambda": false,
    "no-console": false
  },
  "jsRules": {
    "object-literal-sort-keys": false
  }
}
