// Jest Snapshot v1, https://goo.gl/fbAQLP

exports[`ConfirmationPartialSuccess render -- SNAPSHOT 1`] = `
<ConfirmationWrong
  content={
    Object {
      "header": "",
      "phoneNumber": "",
      "type": "partial-success",
    }
  }
>
  <div
    className="wrapper"
  >
    <div
      className="tip"
    />
    <Row
      gutter={0}
    >
      <Col
        span={12}
      >
        <NotificationReference
          notificationId="1232"
        />
      </Col>
    </Row>
  </div>
</ConfirmationWrong>
`;
