// Jest Snapshot v1, https://goo.gl/fbAQLP

exports[`PaymentHistory render -- SNAPSHOT 1`] = `
<div
  className="wrapper"
  data-test-el="payment-history"
>
  <Collapse
    accordion={true}
    bordered={false}
    defaultActiveKey={
      Array [
        "1",
      ]
    }
    expandIconPosition="left"
    openAnimation={
      Object {
        "appear": [Function],
        "enter": [Function],
        "leave": [Function],
      }
    }
  >
    <CollapsePanel
      disabled={true}
      header={
        <LatestPaymentsModal
          caseType="Short Term Disability"
          paymentDetails={
            Array [
              Object {
                "benefitCaseNumber": "BEN-1",
                "chequePaymentInfo": Object {
                  "chequeNumber": "213123",
                },
                "claimId": "CLM-1",
                "effectiveDate": "2017-08-18",
                "paymentAddress": "Castle Black, The Wall",
                "paymentAmount": "200",
                "paymentDate": "2017-08-13",
                "paymentId": "PAY-3",
                "paymentMethod": "Check",
                "paymentType": "Recurring",
                "periodEndDate": "2017-08-28",
                "periodStartDate": "2017-08-06",
                "rootCaseNumber": "NTN-21",
              },
            ]
          }
          showPaymentHistory={true}
        />
      }
      key="1"
    >
      <ContentRenderer
        emptyTitle={
          <FormattedMessage
            id="HOME.LATEST_PAYMENTS.NO_PAYMENTS"
            values={Object {}}
          />
        }
        isEmpty={true}
        loading={false}
      />
    </CollapsePanel>
  </Collapse>
</div>
`;
