// Jest Snapshot v1, https://goo.gl/fbAQLP

exports[`NotificationProperties render - angle border -- SNAPSHOT 1`] = `
<div
  className="wrapper warning angled"
>
  <div
    className="content"
  >
    <ContentLayout
      direction="column"
      noPadding={true}
    >
      <Row
        align="top"
        gutter={0}
        type="flex"
      />
    </ContentLayout>
  </div>
</div>
`;

exports[`NotificationProperties render - default -- SNAPSHOT 1`] = `
<div
  className="wrapper default full"
>
  <div
    className="content"
  >
    <ContentLayout
      direction="column"
      noPadding={true}
    >
      <Row
        align="top"
        gutter={0}
        type="flex"
      />
    </ContentLayout>
  </div>
</div>
`;

exports[`NotificationProperties render - halved border -- SNAPSHOT 1`] = `
<div
  className="wrapper danger halved"
>
  <div
    className="content"
  >
    <ContentLayout
      direction="column"
      noPadding={true}
    >
      <Row
        align="top"
        gutter={0}
        type="flex"
      />
    </ContentLayout>
  </div>
</div>
`;

exports[`NotificationProperties render - success -- SNAPSHOT 1`] = `
<div
  className="wrapper success full"
>
  <div
    className="content"
  >
    <ContentLayout
      direction="column"
      noPadding={true}
    >
      <Row
        align="top"
        gutter={0}
        type="flex"
      />
    </ContentLayout>
  </div>
</div>
`;
