// Jest Snapshot v1, https://goo.gl/fbAQLP

exports[`PhoneNumberProperty render - no phone number -- SNAPSHOT 1`] = `
<PropertyItem
  label={
    <FormattedMessage
      id="NOTIFICATION.PHONE_NUMBER"
      values={Object {}}
    />
  }
/>
`;

exports[`PhoneNumberProperty render -- SNAPSHOT 1`] = `
<div
  className="phone"
>
  <Icon
    theme="filled"
    type="phone"
  />
  test
</div>
`;
