// Jest Snapshot v1, https://goo.gl/fbAQLP

exports[`EmptyWageReplacement render -- SNAPSHOT 1`] = `
<div
  className="wrapper"
>
  <div
    className="content"
  >
    <FormattedMessage
      id="WAGE_REPLACEMENT.EMPTY.TITLE"
      values={Object {}}
    />
  </div>
</div>
`;
