// Jest Snapshot v1, https://goo.gl/fbAQLP

exports[`WageReplacementStatusIcon render - Approved -- SNAPSHOT 1`] = `
<span
  data-test-el="wage-replacement-status-icon"
>
  <NotificationPanelStatus
    color="#b3b3b3"
    status={
      <React.Fragment>
        <FormattedMessage
          id="DISABILITY_BENEFIT_STATUS.DECIDED"
          values={Object {}}
        />
      </React.Fragment>
    }
  />
</span>
`;

exports[`WageReplacementStatusIcon render - Default -- SNAPSHOT 1`] = `
<span
  data-test-el="wage-replacement-status-icon"
>
  <NotificationPanelStatus
    color="#b3b3b3"
    status={
      <React.Fragment>
        <FormattedMessage
          id="DISABILITY_BENEFIT_STATUS.CLOSED"
          values={Object {}}
        />
        <span
          className="count"
        >
          (
          1
          )
        </span>
      </React.Fragment>
    }
  />
</span>
`;

exports[`WageReplacementStatusIcon render - Denied -- SNAPSHOT 1`] = `
<span
  data-test-el="wage-replacement-status-icon"
>
  <NotificationPanelStatus
    color="#b3b3b3"
    status={
      <React.Fragment>
        <FormattedMessage
          id="DISABILITY_BENEFIT_STATUS.DECIDED"
          values={Object {}}
        />
      </React.Fragment>
    }
  />
</span>
`;

exports[`WageReplacementStatusIcon render - Pending -- SNAPSHOT 1`] = `
<span
  data-test-el="wage-replacement-status-icon"
>
  <NotificationPanelStatus
    color="#ffc20e"
    status={
      <React.Fragment>
        <FormattedMessage
          id="DISABILITY_BENEFIT_STATUS.PENDING"
          values={Object {}}
        />
      </React.Fragment>
    }
  />
</span>
`;

exports[`WageReplacementStatusIcon render - Unknown Pending -- SNAPSHOT 1`] = `
<span
  data-test-el="wage-replacement-status-icon"
>
  <NotificationPanelStatus
    color="#b3b3b3"
    status={
      <React.Fragment>
        <FormattedMessage
          id="DISABILITY_BENEFIT_STATUS.CLOSED"
          values={Object {}}
        />
      </React.Fragment>
    }
  />
</span>
`;
