// Jest Snapshot v1, https://goo.gl/fbAQLP

exports[`MyProfile render -- SNAPSHOT 1`] = `
<div
  data-test-el="my-profile"
>
  <ContentLayout
    direction="column"
  >
    <PageTitle>
      <FormattedMessage
        id="MY_PROFILE.TITLE"
        values={Object {}}
      />
    </PageTitle>
    <Row>
      <Col
        xs={24}
      >
        <Tabs
          defaultActiveKey="personal-details"
          hideAdd={false}
          onChange={[Function]}
          tabPosition="left"
        >
          <TabPane
            key="personal-details"
            placeholder={null}
            tab={
              <div
                className="tab"
              >
                <div
                  className="icon personalDetail personalDetailActive"
                />
                <span
                  className="text"
                >
                  <FormattedMessage
                    id="MY_PROFILE.PERSONAL_DETAILS"
                    values={Object {}}
                  />
                </span>
              </div>
            }
          >
            <Component />
          </TabPane>
          <TabPane
            key="employment-details"
            placeholder={null}
            tab={
              <div
                className="tab"
                data-test-el="employment-details"
              >
                <div
                  className="icon employmentDetails"
                />
                <span
                  className="text"
                >
                  <FormattedMessage
                    id="MY_PROFILE.EMPLOYMENT_DETAILS"
                    values={Object {}}
                  />
                </span>
              </div>
            }
          >
            <Component />
          </TabPane>
          <TabPane
            key="payment-preference"
            placeholder={null}
            tab={
              <div
                className="tab"
                data-test-el="payment-preferences"
              >
                <div
                  className="icon paymentPreferences"
                />
                <span
                  className="text"
                >
                  <FormattedMessage
                    id="MY_PROFILE.PAYMENT_PREFERENCES"
                    values={Object {}}
                  />
                </span>
              </div>
            }
          >
            <injectIntl(PaymentPreferenceContainer) />
          </TabPane>
        </Tabs>
      </Col>
    </Row>
  </ContentLayout>
</div>
`;
