<svg width="479" height="304" viewBox="0 0 479 304" fill="none" xmlns="http://www.w3.org/2000/svg">
<path d="M246.218 0L254.123 94.4819L287.227 5.63657L269.348 98.7478L325.195 22.1283L282.858 106.963L357.305 48.2519L293.65 118.519L381.176 82.0701L300.924 132.557L395.039 121.075L304.141 148.038L397.863 162.373L303.062 163.812L389.441 202.902L297.767 178.711L370.397 239.655L288.649 191.628L342.143 269.908L276.384 201.607L306.775 291.416L261.882 207.906L266.915 302.584L246.218 210.059L225.52 302.584L230.554 207.906L185.661 291.416L216.051 201.607L150.292 269.908L203.786 191.628L122.038 239.655L194.668 178.711L102.994 202.902L189.373 163.812L94.5721 162.373L188.294 148.038L97.397 121.075L191.511 132.557L111.259 82.0701L198.785 118.519L135.131 48.2519L209.578 106.963L167.241 22.1283L223.087 98.7478L205.209 5.63657L238.312 94.4819L246.218 0Z" fill="#FFF0CB"/>
<circle cx="246.218" cy="152" r="64" fill="#FFC20E"/>
<path opacity="0.8" d="M256.9 135.551C256.53 135.551 256.221 135.675 255.912 135.675C256.592 132.463 256.9 129.129 256.9 125.67C256.9 98.3739 234.792 76.2651 207.497 76.2651C192.305 76.2651 178.904 83.2436 169.826 94.0509C158.34 71.8186 135.429 56.5031 108.689 56.5031C70.5241 56.5031 39.5232 87.443 39.5232 125.67C39.5232 130.178 40.0172 134.501 40.82 138.763C17.1679 146.544 0 168.591 0 194.837C0 227.568 26.5546 254.124 59.2847 254.124H256.9C289.631 254.124 316.185 227.568 316.185 194.837C316.185 162.106 289.631 135.551 256.9 135.551Z" fill="#B3B3B3"/>
<path opacity="0.8" d="M438.312 54.4C438.058 54.4 437.846 54.485 437.634 54.485C438.101 52.275 438.312 49.98 438.312 47.6C438.312 28.815 423.139 13.6 404.406 13.6C393.98 13.6 384.783 18.4025 378.553 25.84C370.67 10.54 354.946 0 336.594 0C310.401 0 289.125 21.2925 289.125 47.6C289.125 50.7025 289.464 53.6775 290.015 56.61C273.782 61.965 262 77.1375 262 95.2C262 117.725 280.225 136 302.688 136H438.312C460.775 136 479 117.725 479 95.2C479 72.675 460.775 54.4 438.312 54.4Z" fill="#B3B3B3"/>
</svg>
