// Jest Snapshot v1, https://goo.gl/fbAQLP

exports[`IntakeStepControls render - Cancel -- SNAPSHOT 1`] = `
<Row>
  <Col>
    <Button
      block={false}
      data-test-el="step-submit"
      ghost={false}
      htmlType="submit"
      loading={false}
      type="primary"
    >
      <FormattedMessage
        id="INTAKE.CONTROLS.SAVE_AND_PROCEED"
        values={Object {}}
      />
    </Button>
    <Button
      block={false}
      data-test-el="step-cancel"
      ghost={false}
      htmlType="button"
      loading={false}
      type="link"
    >
      <FormattedMessage
        id="INTAKE.CONTROLS.CANCEL"
        values={Object {}}
      />
    </Button>
  </Col>
</Row>
`;

exports[`IntakeStepControls render -- SNAPSHOT 1`] = `
<Row>
  <Col>
    <Button
      block={false}
      data-test-el="step-submit"
      ghost={false}
      htmlType="submit"
      loading={false}
      type="primary"
    >
      <FormattedMessage
        id="INTAKE.CONTROLS.SAVE_AND_PROCEED"
        values={Object {}}
      />
    </Button>
  </Col>
</Row>
`;
