// Jest Snapshot v1, https://goo.gl/fbAQLP

exports[`IntakeOverview render -- SNAPSHOT 1`] = `
<div
  className="wrapper"
>
  <ContentLayout>
    <div
      className="overview"
    >
      <IntakeOverviewItem
        key="0"
        onClick={[MockFunction]}
        section={
          Object {
            "isActive": true,
            "isComplete": true,
          }
        }
      />
    </div>
  </ContentLayout>
</div>
`;
