// Jest Snapshot v1, https://goo.gl/fbAQLP

exports[`MessageListHeader render -- SNAPSHOT 1`] = `
<Fragment>
  <InlinePropertyItem
    label={
      <FormattedMessage
        id="PAYMENTS.RELATES_TO"
        values={Object {}}
      />
    }
  >
    CLM-1
  </InlinePropertyItem>
</Fragment>
`;
