// Jest Snapshot v1, https://goo.gl/fbAQLP

exports[`EFT Accounts List Component render - no accounts -- SNAPSHOT 1`] = `
<RadioGroup
  buttonStyle="outline"
  className="group"
  disabled={false}
  name="eftAccountList"
/>
`;

exports[`EFT Accounts List Component render - no default EFT -- SNAPSHOT 1`] = `
<RadioGroup
  buttonStyle="outline"
  className="group"
  disabled={false}
  name="eftAccountList"
  value="9999333"
>
  <AccountDetailsListItem
    accountDetails={
      Object {
        "accountName": "Tony Montana",
        "accountNo": "1234567",
        "accountType": "Checking",
        "paymentPreferenceId": "202",
        "routingNumber": "4321",
      }
    }
    isSelectedAccount={false}
    key="0"
    onEftAccountChange={[Function]}
  />
  <AccountDetailsListItem
    accountDetails={
      Object {
        "accountName": "Joey Soprano",
        "accountNo": "4566463",
        "accountType": "savings",
        "paymentPreferenceId": "204",
        "routingNumber": "9876",
      }
    }
    isSelectedAccount={false}
    key="1"
    onEftAccountChange={[Function]}
  />
  <AccountDetailsListItem
    accountDetails={
      Object {
        "accountName": "Tommy Vercetti",
        "accountNo": "9999333",
        "accountType": "savings",
        "paymentPreferenceId": "205",
        "routingNumber": "9999",
      }
    }
    isSelectedAccount={true}
    key="2"
    onEftAccountChange={[Function]}
  />
</RadioGroup>
`;

exports[`EFT Accounts List Component render -- SNAPSHOT 1`] = `
<RadioGroup
  buttonStyle="outline"
  className="group"
  disabled={false}
  name="eftAccountList"
>
  <AccountDetailsListItem
    accountDetails={
      Object {
        "accountName": "Tony Montana",
        "accountNo": "1234567",
        "accountType": "Checking",
        "paymentPreferenceId": "202",
        "routingNumber": "4321",
      }
    }
    isSelectedAccount={false}
    key="0"
    onEftAccountChange={[Function]}
  />
  <AccountDetailsListItem
    accountDetails={
      Object {
        "accountName": "Joey Soprano",
        "accountNo": "4566463",
        "accountType": "savings",
        "paymentPreferenceId": "204",
        "routingNumber": "9876",
      }
    }
    isSelectedAccount={false}
    key="1"
    onEftAccountChange={[Function]}
  />
  <AccountDetailsListItem
    accountDetails={
      Object {
        "accountName": "Tommy Vercetti",
        "accountNo": "9999333",
        "accountType": "savings",
        "paymentPreferenceId": "205",
        "routingNumber": "9999",
      }
    }
    isSelectedAccount={false}
    key="2"
    onEftAccountChange={[Function]}
  />
</RadioGroup>
`;
