// Jest Snapshot v1, https://goo.gl/fbAQLP

exports[`timeline legend render -- SNAPSHOT 1`] = `
<Fragment>
  <div
    className="legendGroup"
  >
    <p
      className="legendGroupCaption"
    >
      <FormattedMessage
        id="NOTIFICATION.TIMELINE.LEGEND_COLOR"
        values={Object {}}
      />
    </p>
    <ul
      className="legendList"
    >
      <li
        className="legendItem approved"
      >
        <FormattedMessage
          id="NOTIFICATION.TIMELINE.LEGEND_COLOR_APPROVED"
          values={Object {}}
        />
      </li>
      <li
        className="legendItem pending"
      >
        <FormattedMessage
          id="NOTIFICATION.TIMELINE.LEGEND_COLOR_PENDING"
          values={Object {}}
        />
      </li>
      <li
        className="legendItem declined"
      >
        <FormattedMessage
          id="NOTIFICATION.TIMELINE.LEGEND_COLOR_DECLINED"
          values={Object {}}
        />
      </li>
      <li
        className="legendItem cancelled"
      >
        <FormattedMessage
          id="NOTIFICATION.TIMELINE.LEGEND_COLOR_CANCELLED"
          values={Object {}}
        />
      </li>
    </ul>
  </div>
  <div
    className="legendGroup"
  >
    <p
      className="legendGroupCaption"
    >
      <FormattedMessage
        id="NOTIFICATION.TIMELINE.LEGEND_GRAPHIC_PATTERN"
        values={Object {}}
      />
    </p>
    <ul
      className="legendList"
    >
      <li
        className="legendItem continuousTime"
      >
        <FormattedMessage
          id="NOTIFICATION.CONTINUOUS_TIME"
          values={Object {}}
        />
      </li>
      <li
        className="legendItem intermittentTime"
      >
        <FormattedMessage
          id="NOTIFICATION.INTERMITTENT_TIME"
          values={Object {}}
        />
      </li>
      <li
        className="legendItem reducedSchedule"
      >
        <FormattedMessage
          id="NOTIFICATION.REDUCED_SCHEDULE"
          values={Object {}}
        />
      </li>
    </ul>
  </div>
</Fragment>
`;
