// Jest Snapshot v1, https://goo.gl/fbAQLP

exports[`AccommodationProperties render -- SNAPSHOT 1`] = `
<div
  data-test-el="wage-replacement-properties"
>
  <NotificationProperties
    status="pending"
  >
    <Col
      sm={12}
      xs={24}
    >
      <PropertyItem
        label={
          <FormattedMessage
            id="NOTIFICATION.LIMITATIONS"
            values={Object {}}
          />
        }
      >
        <div
          key="limitation_LIM-45"
        >
           - 
          Blind
        </div>
        <div
          key="limitation_LIM-32"
        >
           - 
          Skin Rash/Blisters/Sores
        </div>
      </PropertyItem>
    </Col>
    <Col
      sm={6}
      xs={24}
    >
      <PropertyItem
        label={
          <FormattedMessage
            id="NOTIFICATION.NOTIFIED_BY"
            values={Object {}}
          />
        }
      />
    </Col>
    <Col
      sm={6}
      xs={24}
    >
      <AccommodationStatusIcon
        decision=""
        status="Assessment"
      />
    </Col>
    <div
      className="title"
    >
      <FormattedMessage
        id="NOTIFICATION.ACCOMMODATIONS_PROPOSED"
        values={Object {}}
      />
    </div>
    <ProposedAccommodations
      accommodations={
        Array [
          Object {
            "accommodationCategory": "Physical workplace modifications or workstation relocation",
            "accommodationDescription": "New desk required",
            "accommodationEndDate": "2019-12-30",
            "accommodationType": "Make materials and equipment within reach",
            "creationDate": "2018-08-29",
            "id": "WAC-56",
            "implementDate": "2018-09-12",
            "implementedDate": "2018-09-14",
          },
        ]
      }
    />
  </NotificationProperties>
</div>
`;
