// Jest Snapshot v1, https://goo.gl/fbAQLP

exports[`AccommodationStatusIcon render - Accommodated -- SNAPSHOT 1`] = `
<span
  data-test-el="accommodation-status-icon"
>
  <NotificationPanelStatus
    color="#35b558"
    status={
      <FormattedMessage
        id="WORKPLACE_ACCOMMODATION_STATUS.ACCOMMODATED"
        values={Object {}}
      />
    }
  />
</span>
`;

exports[`AccommodationStatusIcon render - Not Accommodated -- SNAPSHOT 1`] = `
<span
  data-test-el="accommodation-status-icon"
>
  <NotificationPanelStatus
    color="#f04c3f"
    status={
      <FormattedMessage
        id="WORKPLACE_ACCOMMODATION_STATUS.NOT_ACCOMMODATED"
        values={Object {}}
      />
    }
  />
</span>
`;

exports[`AccommodationStatusIcon render - Pending -- SNAPSHOT 1`] = `
<span
  data-test-el="accommodation-status-icon"
>
  <NotificationPanelStatus
    color="#ffc20e"
    status={
      <FormattedMessage
        id="WORKPLACE_ACCOMMODATION_STATUS.PENDING"
        values={Object {}}
      />
    }
  />
</span>
`;

exports[`AccommodationStatusIcon render -- SNAPSHOT 1`] = `
<span
  data-test-el="accommodation-status-icon"
>
  <NotificationPanelStatus
    color="#ffc20e"
    status={
      <FormattedMessage
        id="WORKPLACE_ACCOMMODATION_STATUS.PENDING"
        values={Object {}}
      />
    }
  />
</span>
`;
