// Jest Snapshot v1, https://goo.gl/fbAQLP

exports[`ProposedAccommodations render -- SNAPSHOT 1`] = `
<div
  className="wrapper"
  data-test-el="proposed-accommodations"
>
  <Collapse
    bordered={true}
    expandIconPosition="left"
    openAnimation={
      Object {
        "appear": [Function],
        "enter": [Function],
        "leave": [Function],
      }
    }
  >
    <CollapsePanel
      header={
        <React.Fragment>
          Physical workplace modifications or workstation relocation
           |
          Make materials and equipment within reach
        </React.Fragment>
      }
      key="proposed_accommodation_0"
    >
      <ProposedAccommodationProperties
        accommodation={
          Object {
            "accommodationCategory": "Physical workplace modifications or workstation relocation",
            "accommodationDescription": "New desk required",
            "accommodationEndDate": "2019-12-30",
            "accommodationType": "Make materials and equipment within reach",
            "creationDate": "2018-08-29",
            "id": "WAC-56",
            "implementDate": "2018-09-12",
            "implementedDate": "2018-09-14",
          }
        }
      />
    </CollapsePanel>
  </Collapse>
</div>
`;
