// Jest Snapshot v1, https://goo.gl/fbAQLP

exports[`MyOpenNotifications render -- SNAPSHOT 1`] = `
<MyOpenNotificationsPanel
  loading={false}
  notifications={
    Array [
      Object {
        "absences": Array [
          Object {
            "absenceHandler": "James Peach",
            "absenceHandlerEmailAddress": "giantpeach@gmail.com",
            "absenceHandlerPhoneNumber": "1-1234567809",
            "absenceId": "ABS-1",
            "createdDate": "2017-08-06",
            "endDate": "2017-08-18",
            "notificationCaseId": "NTN-21",
            "reason": "Care for a Family Member",
            "reasonQualifier1": "Right to Leave",
            "reasonQualifier2": "Medical Related",
            "startDate": "2017-08-06",
            "status": "Adjudication",
          },
        ],
        "accidentDate": "2019-07-31",
        "accommodations": Array [
          Object {
            "accommodationCaseId": "ACC-35",
            "accommodationDecision": "",
            "caseHandler": "Benny Smith",
            "caseHandlerEmailAddress": "",
            "caseHandlerPhoneNumber": "01-234-56789",
            "decisionDate": "2018-08-28",
            "limitations": Array [
              Object {
                "id": "LIM-45",
                "limitationType": "Blind",
              },
              Object {
                "id": "LIM-32",
                "limitationType": "Skin Rash/Blisters/Sores",
              },
            ],
            "notificationDate": "2018-08-20",
            "notifiedBy": "",
            "pregnancyRelated": "Yes",
            "status": "Assessment",
            "workplaceAccommodations": Array [
              Object {
                "accommodationCategory": "Physical workplace modifications or workstation relocation",
                "accommodationDescription": "New desk required",
                "accommodationEndDate": "2019-12-30",
                "accommodationType": "Make materials and equipment within reach",
                "creationDate": "2018-08-29",
                "id": "WAC-56",
                "implementDate": "2018-09-12",
                "implementedDate": "2018-09-14",
              },
            ],
          },
        ],
        "claims": Array [
          Object {
            "caseComplexity": "Very Complex",
            "claimHandler": "Ted Crilly",
            "claimHandlerEmailAddress": "ted.crilly@craggyisland.com",
            "claimHandlerPhoneNo": "000111444",
            "claimId": "CLM-1",
            "claimType": "Group Disability Claim",
            "creationDate": "2017-08-06T14:16:23.279",
            "customerName": "Jon Snow",
            "description": "You Know Nothing",
            "effectiveDate": "2017-08-18",
            "notificationDate": "2017-07-10T13:30:00+00:00",
            "policyReferences": "0123456789-0",
            "status": "Pending",
          },
        ],
        "createdDate": "2017-08-06",
        "notificationCaseId": "NTN-21",
        "notificationDate": "2017-08-18",
        "notificationReason": "Accident or treatment for injury",
      },
      Object {
        "absences": Array [
          Object {
            "absenceHandler": "James Peach",
            "absenceHandlerEmailAddress": "giantpeach@gmail.com",
            "absenceHandlerPhoneNumber": "1-1234567809",
            "absenceId": "ABS-1",
            "createdDate": "2017-08-06",
            "endDate": "2017-08-18",
            "notificationCaseId": "NTN-21",
            "reason": "Care for a Family Member",
            "reasonQualifier1": "Right to Leave",
            "reasonQualifier2": "Medical Related",
            "startDate": "2017-08-06",
            "status": "Adjudication",
          },
        ],
        "accidentDate": "2017-08-06",
        "accommodations": Array [
          Object {
            "accommodationCaseId": "ACC-35",
            "accommodationDecision": "",
            "caseHandler": "Benny Smith",
            "caseHandlerEmailAddress": "",
            "caseHandlerPhoneNumber": "01-234-56789",
            "decisionDate": "2018-08-28",
            "limitations": Array [
              Object {
                "id": "LIM-45",
                "limitationType": "Blind",
              },
              Object {
                "id": "LIM-32",
                "limitationType": "Skin Rash/Blisters/Sores",
              },
            ],
            "notificationDate": "2018-08-20",
            "notifiedBy": "",
            "pregnancyRelated": "Yes",
            "status": "Assessment",
            "workplaceAccommodations": Array [
              Object {
                "accommodationCategory": "Physical workplace modifications or workstation relocation",
                "accommodationDescription": "New desk required",
                "accommodationEndDate": "2019-12-30",
                "accommodationType": "Make materials and equipment within reach",
                "creationDate": "2018-08-29",
                "id": "WAC-56",
                "implementDate": "2018-09-12",
                "implementedDate": "2018-09-14",
              },
            ],
          },
        ],
        "claims": Array [
          Object {
            "caseComplexity": "Very Complex",
            "claimHandler": "Ted Crilly",
            "claimHandlerEmailAddress": "ted.crilly@craggyisland.com",
            "claimHandlerPhoneNo": "000111444",
            "claimId": "CLM-1",
            "claimType": "Group Disability Claim",
            "creationDate": "2017-08-06T14:16:23.279",
            "customerName": "Jon Snow",
            "description": "You Know Nothing",
            "effectiveDate": "2017-08-18",
            "notificationDate": "2017-07-10T13:30:00+00:00",
            "policyReferences": "0123456789-0",
            "status": "Pending",
          },
        ],
        "createdDate": "2017-08-06",
        "dateFirstMissingWork": "2017-08-06",
        "expectedRTWDate": "2017-08-06",
        "multipleConflictingAccidentDates": false,
        "multipleConflictingExpectedRTWDates": false,
        "notificationCaseId": "NTN-22",
        "notificationDate": "2017-08-18",
        "notificationReason": "Accident or treatment for injury",
        "status": "Open",
      },
      Object {
        "absences": Array [
          Object {
            "absenceHandler": "James Peach",
            "absenceHandlerEmailAddress": "giantpeach@gmail.com",
            "absenceHandlerPhoneNumber": "1-1234567809",
            "absenceId": "ABS-1",
            "createdDate": "2017-08-06",
            "endDate": "2017-08-18",
            "notificationCaseId": "NTN-21",
            "reason": "Care for a Family Member",
            "reasonQualifier1": "Right to Leave",
            "reasonQualifier2": "Medical Related",
            "startDate": "2017-08-06",
            "status": "Adjudication",
          },
        ],
        "accidentDate": "",
        "accommodations": Array [
          Object {
            "accommodationCaseId": "ACC-35",
            "accommodationDecision": "",
            "caseHandler": "Benny Smith",
            "caseHandlerEmailAddress": "",
            "caseHandlerPhoneNumber": "01-234-56789",
            "decisionDate": "2018-08-28",
            "limitations": Array [
              Object {
                "id": "LIM-45",
                "limitationType": "Blind",
              },
              Object {
                "id": "LIM-32",
                "limitationType": "Skin Rash/Blisters/Sores",
              },
            ],
            "notificationDate": "2018-08-20",
            "notifiedBy": "",
            "pregnancyRelated": "Yes",
            "status": "Assessment",
            "workplaceAccommodations": Array [
              Object {
                "accommodationCategory": "Physical workplace modifications or workstation relocation",
                "accommodationDescription": "New desk required",
                "accommodationEndDate": "2019-12-30",
                "accommodationType": "Make materials and equipment within reach",
                "creationDate": "2018-08-29",
                "id": "WAC-56",
                "implementDate": "2018-09-12",
                "implementedDate": "2018-09-14",
              },
            ],
          },
        ],
        "actualDeliveryDate": "2019-08-01",
        "claims": Array [
          Object {
            "caseComplexity": "Very Complex",
            "claimHandler": "Ted Crilly",
            "claimHandlerEmailAddress": "ted.crilly@craggyisland.com",
            "claimHandlerPhoneNo": "000111444",
            "claimId": "CLM-1",
            "claimType": "Group Disability Claim",
            "creationDate": "2017-08-06T14:16:23.279",
            "customerName": "Jon Snow",
            "description": "You Know Nothing",
            "effectiveDate": "2017-08-18",
            "notificationDate": "2017-07-10T13:30:00+00:00",
            "policyReferences": "0123456789-0",
            "status": "Pending",
          },
        ],
        "createdDate": "2017-08-06",
        "dateFirstMissingWork": "2017-08-06",
        "expectedDeliveryDate": "2019-08-01",
        "expectedRTWDate": "2017-08-06",
        "multipleConflictingAccidentDates": false,
        "multipleConflictingExpectedRTWDates": false,
        "notificationCaseId": "NTN-23",
        "notificationDate": "2017-08-18",
        "notificationReason": "Pregnancy, birth or related medical treatment",
        "status": "Open",
      },
      Object {
        "absences": Array [
          Object {
            "absenceHandler": "James Peach",
            "absenceHandlerEmailAddress": "giantpeach@gmail.com",
            "absenceHandlerPhoneNumber": "1-1234567809",
            "absenceId": "ABS-1",
            "createdDate": "2017-08-06",
            "endDate": "2017-08-18",
            "notificationCaseId": "NTN-21",
            "reason": "Care for a Family Member",
            "reasonQualifier1": "Right to Leave",
            "reasonQualifier2": "Medical Related",
            "startDate": "2017-08-06",
            "status": "Adjudication",
          },
        ],
        "accidentDate": "",
        "accommodations": Array [
          Object {
            "accommodationCaseId": "ACC-35",
            "accommodationDecision": "",
            "caseHandler": "Benny Smith",
            "caseHandlerEmailAddress": "",
            "caseHandlerPhoneNumber": "01-234-56789",
            "decisionDate": "2018-08-28",
            "limitations": Array [
              Object {
                "id": "LIM-45",
                "limitationType": "Blind",
              },
              Object {
                "id": "LIM-32",
                "limitationType": "Skin Rash/Blisters/Sores",
              },
            ],
            "notificationDate": "2018-08-20",
            "notifiedBy": "",
            "pregnancyRelated": "Yes",
            "status": "Assessment",
            "workplaceAccommodations": Array [
              Object {
                "accommodationCategory": "Physical workplace modifications or workstation relocation",
                "accommodationDescription": "New desk required",
                "accommodationEndDate": "2019-12-30",
                "accommodationType": "Make materials and equipment within reach",
                "creationDate": "2018-08-29",
                "id": "WAC-56",
                "implementDate": "2018-09-12",
                "implementedDate": "2018-09-14",
              },
            ],
          },
        ],
        "actualDeliveryDate": "2019-08-01",
        "claims": Array [
          Object {
            "caseComplexity": "Very Complex",
            "claimHandler": "Ted Crilly",
            "claimHandlerEmailAddress": "ted.crilly@craggyisland.com",
            "claimHandlerPhoneNo": "000111444",
            "claimId": "CLM-1",
            "claimType": "Group Disability Claim",
            "creationDate": "2017-08-06T14:16:23.279",
            "customerName": "Jon Snow",
            "description": "You Know Nothing",
            "effectiveDate": "2017-08-18",
            "notificationDate": "2017-07-10T13:30:00+00:00",
            "policyReferences": "0123456789-0",
            "status": "Pending",
          },
        ],
        "createdDate": "2017-08-06",
        "expectedDeliveryDate": "2019-08-01",
        "multipleConflictingAccidentDates": false,
        "multipleConflictingExpectedRTWDates": false,
        "notificationCaseId": "NTN-24",
        "notificationDate": "2017-08-18",
        "notificationReason": "Pregnancy, birth or related medical treatment",
        "status": "Open",
      },
      Object {
        "absences": Array [
          Object {
            "absenceHandler": "James Peach",
            "absenceHandlerEmailAddress": "giantpeach@gmail.com",
            "absenceHandlerPhoneNumber": "1-1234567809",
            "absenceId": "ABS-1",
            "createdDate": "2017-08-06",
            "endDate": "2017-08-18",
            "notificationCaseId": "NTN-21",
            "reason": "Care for a Family Member",
            "reasonQualifier1": "Right to Leave",
            "reasonQualifier2": "Medical Related",
            "startDate": "2017-08-06",
            "status": "Adjudication",
          },
        ],
        "accidentDate": "",
        "accommodations": Array [
          Object {
            "accommodationCaseId": "ACC-35",
            "accommodationDecision": "",
            "caseHandler": "Benny Smith",
            "caseHandlerEmailAddress": "",
            "caseHandlerPhoneNumber": "01-234-56789",
            "decisionDate": "2018-08-28",
            "limitations": Array [
              Object {
                "id": "LIM-45",
                "limitationType": "Blind",
              },
              Object {
                "id": "LIM-32",
                "limitationType": "Skin Rash/Blisters/Sores",
              },
            ],
            "notificationDate": "2018-08-20",
            "notifiedBy": "",
            "pregnancyRelated": "Yes",
            "status": "Assessment",
            "workplaceAccommodations": Array [
              Object {
                "accommodationCategory": "Physical workplace modifications or workstation relocation",
                "accommodationDescription": "New desk required",
                "accommodationEndDate": "2019-12-30",
                "accommodationType": "Make materials and equipment within reach",
                "creationDate": "2018-08-29",
                "id": "WAC-56",
                "implementDate": "2018-09-12",
                "implementedDate": "2018-09-14",
              },
            ],
          },
        ],
        "claims": Array [
          Object {
            "caseComplexity": "Very Complex",
            "claimHandler": "Ted Crilly",
            "claimHandlerEmailAddress": "ted.crilly@craggyisland.com",
            "claimHandlerPhoneNo": "000111444",
            "claimId": "CLM-1",
            "claimType": "Group Disability Claim",
            "creationDate": "2017-08-06T14:16:23.279",
            "customerName": "Jon Snow",
            "description": "You Know Nothing",
            "effectiveDate": "2017-08-18",
            "notificationDate": "2017-07-10T13:30:00+00:00",
            "policyReferences": "0123456789-0",
            "status": "Pending",
          },
        ],
        "createdDate": "2017-08-06",
        "dateFirstMissingWork": "2019-08-01",
        "expectedRTWDate": "2019-08-01",
        "multipleConflictingAccidentDates": false,
        "multipleConflictingExpectedRTWDates": false,
        "notificationCaseId": "NTN-25",
        "notificationDate": "2017-08-18",
        "notificationReason": "Out of work for another reason",
        "status": "Open",
      },
      Object {
        "absences": Array [
          Object {
            "absenceHandler": "James Peach",
            "absenceHandlerEmailAddress": "giantpeach@gmail.com",
            "absenceHandlerPhoneNumber": "1-1234567809",
            "absenceId": "ABS-1",
            "createdDate": "2017-08-06",
            "endDate": "2017-08-18",
            "notificationCaseId": "NTN-21",
            "reason": "Care for a Family Member",
            "reasonQualifier1": "Right to Leave",
            "reasonQualifier2": "Medical Related",
            "startDate": "2017-08-06",
            "status": "Adjudication",
          },
        ],
        "accidentDate": "",
        "accommodations": Array [
          Object {
            "accommodationCaseId": "ACC-35",
            "accommodationDecision": "",
            "caseHandler": "Benny Smith",
            "caseHandlerEmailAddress": "",
            "caseHandlerPhoneNumber": "01-234-56789",
            "decisionDate": "2018-08-28",
            "limitations": Array [
              Object {
                "id": "LIM-45",
                "limitationType": "Blind",
              },
              Object {
                "id": "LIM-32",
                "limitationType": "Skin Rash/Blisters/Sores",
              },
            ],
            "notificationDate": "2018-08-20",
            "notifiedBy": "",
            "pregnancyRelated": "Yes",
            "status": "Assessment",
            "workplaceAccommodations": Array [
              Object {
                "accommodationCategory": "Physical workplace modifications or workstation relocation",
                "accommodationDescription": "New desk required",
                "accommodationEndDate": "2019-12-30",
                "accommodationType": "Make materials and equipment within reach",
                "creationDate": "2018-08-29",
                "id": "WAC-56",
                "implementDate": "2018-09-12",
                "implementedDate": "2018-09-14",
              },
            ],
          },
        ],
        "claims": Array [
          Object {
            "caseComplexity": "Very Complex",
            "claimHandler": "Ted Crilly",
            "claimHandlerEmailAddress": "ted.crilly@craggyisland.com",
            "claimHandlerPhoneNo": "000111444",
            "claimId": "CLM-1",
            "claimType": "Group Disability Claim",
            "creationDate": "2017-08-06T14:16:23.279",
            "customerName": "Jon Snow",
            "description": "You Know Nothing",
            "effectiveDate": "2017-08-18",
            "notificationDate": "2017-07-10T13:30:00+00:00",
            "policyReferences": "0123456789-0",
            "status": "Pending",
          },
        ],
        "createdDate": "2017-08-06",
        "multipleConflictingAccidentDates": false,
        "multipleConflictingExpectedRTWDates": false,
        "notificationCaseId": "NTN-26",
        "notificationDate": "2017-08-18",
        "notificationReason": "Out of work for another reason",
        "status": "Open",
      },
      Object {
        "absences": Array [
          Object {
            "absenceHandler": "James Peach",
            "absenceHandlerEmailAddress": "giantpeach@gmail.com",
            "absenceHandlerPhoneNumber": "1-1234567809",
            "absenceId": "ABS-1",
            "createdDate": "2017-08-06",
            "endDate": "2017-08-18",
            "notificationCaseId": "NTN-21",
            "reason": "Care for a Family Member",
            "reasonQualifier1": "Right to Leave",
            "reasonQualifier2": "Medical Related",
            "startDate": "2017-08-06",
            "status": "Adjudication",
          },
        ],
        "accidentDate": "",
        "accommodations": Array [
          Object {
            "accommodationCaseId": "ACC-35",
            "accommodationDecision": "",
            "caseHandler": "Benny Smith",
            "caseHandlerEmailAddress": "",
            "caseHandlerPhoneNumber": "01-234-56789",
            "decisionDate": "2018-08-28",
            "limitations": Array [
              Object {
                "id": "LIM-45",
                "limitationType": "Blind",
              },
              Object {
                "id": "LIM-32",
                "limitationType": "Skin Rash/Blisters/Sores",
              },
            ],
            "notificationDate": "2018-08-20",
            "notifiedBy": "",
            "pregnancyRelated": "Yes",
            "status": "Assessment",
            "workplaceAccommodations": Array [
              Object {
                "accommodationCategory": "Physical workplace modifications or workstation relocation",
                "accommodationDescription": "New desk required",
                "accommodationEndDate": "2019-12-30",
                "accommodationType": "Make materials and equipment within reach",
                "creationDate": "2018-08-29",
                "id": "WAC-56",
                "implementDate": "2018-09-12",
                "implementedDate": "2018-09-14",
              },
            ],
          },
        ],
        "claims": Array [
          Object {
            "caseComplexity": "Very Complex",
            "claimHandler": "Ted Crilly",
            "claimHandlerEmailAddress": "ted.crilly@craggyisland.com",
            "claimHandlerPhoneNo": "000111444",
            "claimId": "CLM-1",
            "claimType": "Group Disability Claim",
            "creationDate": "2017-08-06T14:16:23.279",
            "customerName": "Jon Snow",
            "description": "You Know Nothing",
            "effectiveDate": "2017-08-18",
            "notificationDate": "2017-07-10T13:30:00+00:00",
            "policyReferences": "0123456789-0",
            "status": "Pending",
          },
        ],
        "createdDate": "2017-08-06",
        "dateFirstMissingWork": "2017-08-06",
        "expectedRTWDate": "2017-08-06",
        "multipleConflictingAccidentDates": true,
        "multipleConflictingExpectedRTWDates": false,
        "notificationCaseId": "NTN-27",
        "notificationDate": "2017-08-18",
        "notificationReason": "Accident or treatment for injury",
        "status": "Open",
      },
      Object {
        "absences": Array [
          Object {
            "absenceHandler": "James Peach",
            "absenceHandlerEmailAddress": "giantpeach@gmail.com",
            "absenceHandlerPhoneNumber": "1-1234567809",
            "absenceId": "ABS-1",
            "createdDate": "2017-08-06",
            "endDate": "2017-08-18",
            "notificationCaseId": "NTN-21",
            "reason": "Care for a Family Member",
            "reasonQualifier1": "Right to Leave",
            "reasonQualifier2": "Medical Related",
            "startDate": "2017-08-06",
            "status": "Adjudication",
          },
        ],
        "accidentDate": "",
        "accommodations": Array [
          Object {
            "accommodationCaseId": "ACC-35",
            "accommodationDecision": "",
            "caseHandler": "Benny Smith",
            "caseHandlerEmailAddress": "",
            "caseHandlerPhoneNumber": "01-234-56789",
            "decisionDate": "2018-08-28",
            "limitations": Array [
              Object {
                "id": "LIM-45",
                "limitationType": "Blind",
              },
              Object {
                "id": "LIM-32",
                "limitationType": "Skin Rash/Blisters/Sores",
              },
            ],
            "notificationDate": "2018-08-20",
            "notifiedBy": "",
            "pregnancyRelated": "Yes",
            "status": "Assessment",
            "workplaceAccommodations": Array [
              Object {
                "accommodationCategory": "Physical workplace modifications or workstation relocation",
                "accommodationDescription": "New desk required",
                "accommodationEndDate": "2019-12-30",
                "accommodationType": "Make materials and equipment within reach",
                "creationDate": "2018-08-29",
                "id": "WAC-56",
                "implementDate": "2018-09-12",
                "implementedDate": "2018-09-14",
              },
            ],
          },
        ],
        "actualDeliveryDate": "2019-08-01",
        "claims": Array [
          Object {
            "caseComplexity": "Very Complex",
            "claimHandler": "Ted Crilly",
            "claimHandlerEmailAddress": "ted.crilly@craggyisland.com",
            "claimHandlerPhoneNo": "000111444",
            "claimId": "CLM-1",
            "claimType": "Group Disability Claim",
            "creationDate": "2017-08-06T14:16:23.279",
            "customerName": "Jon Snow",
            "description": "You Know Nothing",
            "effectiveDate": "2017-08-18",
            "notificationDate": "2017-07-10T13:30:00+00:00",
            "policyReferences": "0123456789-0",
            "status": "Pending",
          },
        ],
        "createdDate": "2017-08-06",
        "dateFirstMissingWork": "2017-08-06",
        "expectedDeliveryDate": "2019-08-01",
        "expectedRTWDate": "",
        "multipleConflictingAccidentDates": false,
        "multipleConflictingExpectedRTWDates": true,
        "notificationCaseId": "NTN-28",
        "notificationDate": "2017-08-18",
        "notificationReason": "Pregnancy, birth or related medical treatment",
        "status": "Open",
      },
      Object {
        "absences": Array [
          Object {
            "absenceHandler": "James Peach",
            "absenceHandlerEmailAddress": "giantpeach@gmail.com",
            "absenceHandlerPhoneNumber": "1-1234567809",
            "absenceId": "ABS-1",
            "createdDate": "2017-08-06",
            "endDate": "2017-08-18",
            "notificationCaseId": "NTN-21",
            "reason": "Care for a Family Member",
            "reasonQualifier1": "Right to Leave",
            "reasonQualifier2": "Medical Related",
            "startDate": "2017-08-06",
            "status": "Adjudication",
          },
        ],
        "accidentDate": "",
        "accommodations": Array [
          Object {
            "accommodationCaseId": "ACC-35",
            "accommodationDecision": "",
            "caseHandler": "Benny Smith",
            "caseHandlerEmailAddress": "",
            "caseHandlerPhoneNumber": "01-234-56789",
            "decisionDate": "2018-08-28",
            "limitations": Array [
              Object {
                "id": "LIM-45",
                "limitationType": "Blind",
              },
              Object {
                "id": "LIM-32",
                "limitationType": "Skin Rash/Blisters/Sores",
              },
            ],
            "notificationDate": "2018-08-20",
            "notifiedBy": "",
            "pregnancyRelated": "Yes",
            "status": "Assessment",
            "workplaceAccommodations": Array [
              Object {
                "accommodationCategory": "Physical workplace modifications or workstation relocation",
                "accommodationDescription": "New desk required",
                "accommodationEndDate": "2019-12-30",
                "accommodationType": "Make materials and equipment within reach",
                "creationDate": "2018-08-29",
                "id": "WAC-56",
                "implementDate": "2018-09-12",
                "implementedDate": "2018-09-14",
              },
            ],
          },
        ],
        "claims": Array [
          Object {
            "caseComplexity": "Very Complex",
            "claimHandler": "Ted Crilly",
            "claimHandlerEmailAddress": "ted.crilly@craggyisland.com",
            "claimHandlerPhoneNo": "000111444",
            "claimId": "CLM-1",
            "claimType": "Group Disability Claim",
            "creationDate": "2017-08-06T14:16:23.279",
            "customerName": "Jon Snow",
            "description": "You Know Nothing",
            "effectiveDate": "2017-08-18",
            "notificationDate": "2017-07-10T13:30:00+00:00",
            "policyReferences": "0123456789-0",
            "status": "Pending",
          },
        ],
        "createdDate": "2017-08-06",
        "dateFirstMissingWork": "2019-08-01",
        "expectedRTWDate": "",
        "multipleConflictingAccidentDates": false,
        "multipleConflictingExpectedRTWDates": false,
        "notificationCaseId": "NTN-567",
        "notificationDate": "2017-08-18",
        "notificationReason": "Out of work for another reason",
        "status": "Open",
      },
      Object {
        "accidentDate": "",
        "accommodations": Array [
          Object {
            "accommodationCaseId": "ACC-35",
            "accommodationDecision": "",
            "caseHandler": "Benny Smith",
            "caseHandlerEmailAddress": "",
            "caseHandlerPhoneNumber": "01-234-56789",
            "decisionDate": "2018-08-28",
            "limitations": Array [
              Object {
                "id": "LIM-45",
                "limitationType": "Blind",
              },
              Object {
                "id": "LIM-32",
                "limitationType": "Skin Rash/Blisters/Sores",
              },
            ],
            "notificationDate": "2018-08-20",
            "notifiedBy": "",
            "pregnancyRelated": "Yes",
            "status": "Assessment",
            "workplaceAccommodations": Array [
              Object {
                "accommodationCategory": "Physical workplace modifications or workstation relocation",
                "accommodationDescription": "New desk required",
                "accommodationEndDate": "2019-12-30",
                "accommodationType": "Make materials and equipment within reach",
                "creationDate": "2018-08-29",
                "id": "WAC-56",
                "implementDate": "2018-09-12",
                "implementedDate": "2018-09-14",
              },
            ],
          },
        ],
        "claims": Array [
          Object {
            "caseComplexity": "Very Complex",
            "claimHandler": "Ted Crilly",
            "claimHandlerEmailAddress": "ted.crilly@craggyisland.com",
            "claimHandlerPhoneNo": "000111444",
            "claimId": "CLM-1",
            "claimType": "Group Disability Claim",
            "creationDate": "2017-08-06T14:16:23.279",
            "customerName": "Jon Snow",
            "description": "You Know Nothing",
            "effectiveDate": "2017-08-18",
            "notificationDate": "2017-07-10T13:30:00+00:00",
            "policyReferences": "0123456789-0",
            "status": "Pending",
          },
        ],
        "createdDate": "2017-08-06",
        "dateFirstMissingWork": "2019-08-01",
        "expectedRTWDate": "",
        "multipleConflictingAccidentDates": false,
        "multipleConflictingExpectedRTWDates": false,
        "notificationCaseId": "NTN-527",
        "notificationDate": "2017-08-18",
        "notificationReason": "Out of work for another reason",
        "status": "Open",
      },
      Object {
        "accidentDate": "",
        "accommodations": Array [
          Object {
            "accommodationCaseId": "ACC-35",
            "accommodationDecision": "",
            "caseHandler": "Benny Smith",
            "caseHandlerEmailAddress": "",
            "caseHandlerPhoneNumber": "01-234-56789",
            "decisionDate": "2018-08-28",
            "limitations": Array [
              Object {
                "id": "LIM-45",
                "limitationType": "Blind",
              },
              Object {
                "id": "LIM-32",
                "limitationType": "Skin Rash/Blisters/Sores",
              },
            ],
            "notificationDate": "2018-08-20",
            "notifiedBy": "",
            "pregnancyRelated": "Yes",
            "status": "Assessment",
            "workplaceAccommodations": Array [
              Object {
                "accommodationCategory": "Physical workplace modifications or workstation relocation",
                "accommodationDescription": "New desk required",
                "accommodationEndDate": "2019-12-30",
                "accommodationType": "Make materials and equipment within reach",
                "creationDate": "2018-08-29",
                "id": "WAC-56",
                "implementDate": "2018-09-12",
                "implementedDate": "2018-09-14",
              },
            ],
          },
        ],
        "createdDate": "2017-08-06",
        "dateFirstMissingWork": "2019-08-01",
        "expectedRTWDate": "",
        "multipleConflictingAccidentDates": false,
        "multipleConflictingExpectedRTWDates": false,
        "notificationCaseId": "NTN-522",
        "notificationDate": "2017-08-18",
        "notificationReason": "Out of work for another reason",
        "status": "Open",
      },
      Object {
        "absences": Array [
          Object {
            "absenceHandler": "James Peach",
            "absenceHandlerEmailAddress": "giantpeach@gmail.com",
            "absenceHandlerPhoneNumber": "1-1234567809",
            "absenceId": "ABS-1",
            "createdDate": "2017-08-06",
            "endDate": "2017-08-18",
            "notificationCaseId": "NTN-21",
            "reason": "Care for a Family Member",
            "reasonQualifier1": "Right to Leave",
            "reasonQualifier2": "Medical Related",
            "startDate": "2017-08-06",
            "status": "Adjudication",
          },
        ],
        "accidentDate": "",
        "claims": Array [
          Object {
            "caseComplexity": "Very Complex",
            "claimHandler": "Ted Crilly",
            "claimHandlerEmailAddress": "ted.crilly@craggyisland.com",
            "claimHandlerPhoneNo": "000111444",
            "claimId": "CLM-1",
            "claimType": "Group Disability Claim",
            "creationDate": "2017-08-06T14:16:23.279",
            "customerName": "Jon Snow",
            "description": "You Know Nothing",
            "effectiveDate": "2017-08-18",
            "notificationDate": "2017-07-10T13:30:00+00:00",
            "policyReferences": "0123456789-0",
            "status": "Pending",
          },
        ],
        "createdDate": "2017-08-06",
        "dateFirstMissingWork": "2019-08-01",
        "expectedRTWDate": "",
        "multipleConflictingAccidentDates": false,
        "multipleConflictingExpectedRTWDates": false,
        "notificationCaseId": "NTN-599",
        "notificationDate": "2017-08-18",
        "notificationReason": "Out of work for another reason",
        "status": "Open",
      },
    ]
  }
/>
`;
