// Jest Snapshot v1, https://goo.gl/fbAQLP

exports[`Open Notification render -- SNAPSHOT 1`] = `
<div
  className="column"
>
  <OpenNotificationStatus
    status="Pending"
  />
  <div
    className="progress"
    data-test-el="case-progress"
  >
    <PropertyItem
      label=""
    >
      <FormattedMessage
        id="NOTIFICATIONS.NOTIFICATION_STATUS.PENDING"
        values={Object {}}
      />
    </PropertyItem>
  </div>
</div>
`;
