// Jest Snapshot v1, https://goo.gl/fbAQLP

exports[`Open Notification render -- SNAPSHOT 1`] = `
<div
  className="wrapper"
  data-test-el="notification-link"
>
  <div>
    <NavLink
      className="header"
      to="/notifications/NTN-21"
    >
      NTN-21
    </NavLink>
  </div>
  <div>
    <span
      className="property"
    >
      <FormattedMessage
        id="HOME.MY_OPEN_NOTIFICATIONS.NOTIFIED_ON"
        values={Object {}}
      />
    </span>
    <span
      className="label"
    >
      08-06-2017
    </span>
  </div>
</div>
`;
