// Jest Snapshot v1, https://goo.gl/fbAQLP

exports[`AddressRenderer render -- SNAPSHOT 1`] = `
<div
  className="wrapper"
>
  <div>
    123
     Main street
  </div>
  <div>
    Where it's at
  </div>
  <div>
    Two turn tables
  </div>
  <div>
    And a microphone
  </div>
  <div>
    Somewhere
  </div>
  <div>
    CA
  </div>
  <div>
    Way up high
  </div>
  <div>
    AB123456
  </div>
  <div>
    USA
  </div>
</div>
`;
