// Jest Snapshot v1, https://goo.gl/fbAQLP

exports[`PanelHeader render -- SNAPSHOT 1`] = `
<div
  className="wrapper"
>
  <span
    className="status"
  >
    <FormattedMessage
      id="NOTIFICATIONS.WAGE_REPLACEMENT"
      values={Object {}}
    />
  </span>
</div>
`;
