// Jest Snapshot v1, https://goo.gl/fbAQLP

exports[`Dropdown render -- SNAPSHOT 1`] = `
<Dropdown
  mouseEnterDelay={0.15}
  mouseLeaveDelay={0.1}
  overlay={<DropdownMenu />}
  placement="bottomLeft"
  trigger={
    Array [
      "click",
    ]
  }
>
  <span
    className="trigger"
  >
    Jane
     
    Doe
    <Icon
      className="icon"
      type="caret-down"
    />
  </span>
</Dropdown>
`;
