// Jest Snapshot v1, https://goo.gl/fbAQLP

exports[`RequiredFromMeHeader render -- SNAPSHOT 1`] = `
<div
  className="header"
  data-test-el="required-from-me-header"
>
  <Badge
    className="icon"
    count={null}
    dot={true}
    overflowCount={99}
    showZero={false}
  >
    <Icon
      type="bars"
    />
  </Badge>
  <FormattedMessage
    id="REQUIRED_FROM_ME.TITLE"
    values={
      Object {
        "count": 1,
      }
    }
  />
</div>
`;
