// Jest Snapshot v1, https://goo.gl/fbAQLP

exports[`RequiredFromMeDocumentsList render -- SNAPSHOT 1`] = `
<Fragment>
  <Item
    key="0"
  >
    <div
      className="wrapper wrapperWithDetails"
      data-test-el="required-from-me-doc-name"
    >
      <div
        className="details"
      >
        <RequiredFromMeDocumentModal
          document={
            Object {
              "caseId": "NTN-21",
              "evidence": Object {
                "docReceived": false,
                "name": "Document 1",
                "rootCaseId": "NTN-21",
                "uploadCaseNumber": "NTN-21-ABS-1",
              },
              "id": 0,
            }
          }
          onRefreshRequiredFromMe={[MockFunction]}
        />
      </div>
      <InlinePropertyItem
        label={
          <FormattedMessage
            id="REQUIRED_FROM_ME.REQUIRED_FOR"
            values={Object {}}
          />
        }
      >
        <NavLink
          className="link"
          to="/notifications/NTN-21"
        >
          NTN-21
        </NavLink>
      </InlinePropertyItem>
    </div>
  </Item>
</Fragment>
`;
