// Jest Snapshot v1, https://goo.gl/fbAQLP

exports[`TimeOffFormView render -- SNAPSHOT 1`] = `
<Fragment>
  <div
    className="title"
  >
    <FormattedMessage
      id="INTAKE.DETAILS.TIME_OFF.HOW_MUCH_TIME_OFF_CLAIMS"
      values={Object {}}
    />
  </div>
  <Form
    className="form"
    colon={true}
    hideRequiredMark={false}
    layout="horizontal"
    name="time-off-claims"
    onSubmit={[Function]}
  >
    <div
      className="formGroup"
    >
      <Row
        gutter={0}
      >
        <Col>
          <BooleanInput
            isActive={true}
            isDisabled={false}
            label={
              <FormattedMessage
                id="INTAKE.DETAILS.LABELS.CURRENTLY_ABSENT"
                values={Object {}}
              />
            }
            name="outOfWork"
          />
        </Col>
      </Row>
    </div>
    <div
      className="formGroup"
    >
      <Row
        gutter={32}
      >
        <Col>
          <DatePickerInput
            isActive={true}
            isDisabled={false}
            label={
              <FormattedMessage
                id="INTAKE.DETAILS.LABELS.FIRST_DAY_OF_ABSENCE_OUT_OF_WORK"
                values={Object {}}
              />
            }
            labelCol={
              Object {
                "sm": 24,
                "xs": 48,
              }
            }
            name="leavePeriods[0].leavePeriod.startDate"
            wrapperCol={
              Object {
                "sm": 12,
                "xs": 24,
              }
            }
          />
        </Col>
      </Row>
    </div>
    <div
      className="formGroup"
    >
      <Row
        gutter={32}
      >
        <Col>
          <DatePickerInput
            isActive={true}
            isDisabled={false}
            label={
              <FormattedMessage
                id="INTAKE.DETAILS.LABELS.RETURN_TO_WORK"
                values={Object {}}
              />
            }
            labelCol={
              Object {
                "sm": 24,
                "xs": 48,
              }
            }
            name="leavePeriods[0].leavePeriod.expectedReturnToWorkDate"
            wrapperCol={
              Object {
                "sm": 12,
                "xs": 24,
              }
            }
          />
        </Col>
      </Row>
    </div>
    <div
      className="controls"
    >
      <IntakeStepControls
        isActive={true}
        isDisabled={true}
      />
    </div>
  </Form>
</Fragment>
`;
