// Jest Snapshot v1, https://goo.gl/fbAQLP

exports[`SupportingEvidenceDocuments render -- SNAPSHOT 1`] = `
<Fragment>
  <SupportingEvidenceDocumentsList
    documents={
      Array [
        Object {
          "caseId": "NTN-21",
          "evidence": Object {
            "docReceived": false,
            "name": "Document 1",
            "rootCaseId": "NTN-21",
            "uploadCaseNumber": "NTN-21-ABS-1",
          },
          "id": 0,
        },
      ]
    }
    isActive={true}
    loading={false}
    onAddDocumentation={[MockFunction]}
    onDeleteDocumentation={[MockFunction]}
  />
</Fragment>
`;

exports[`SupportingEvidenceDocuments render -- SNAPSHOT 2`] = `
<Fragment>
  <Spinner />
  <SupportingEvidenceDocumentsList
    documents={
      Array [
        Object {
          "caseId": "NTN-21",
          "evidence": Object {
            "docReceived": false,
            "name": "Document 1",
            "rootCaseId": "NTN-21",
            "uploadCaseNumber": "NTN-21-ABS-1",
          },
          "id": 0,
        },
      ]
    }
    isActive={true}
    loading={true}
    onAddDocumentation={[MockFunction]}
    onDeleteDocumentation={[MockFunction]}
  />
</Fragment>
`;
