// Jest Snapshot v1, https://goo.gl/fbAQLP

exports[`SupportingEvidenceDocumentsList render -- SNAPSHOT 1`] = `
<Fragment>
  <div
    className="spacing"
  >
    <FormattedMessage
      id="INTAKE.WRAP_UP.SUPPORTING_EVIDENCE.DOCUMENTS.TITLE"
      values={Object {}}
    />
  </div>
  <div
    className="spacing"
  >
    <FormattedMessage
      id="INTAKE.WRAP_UP.SUPPORTING_EVIDENCE.DOCUMENTS.REQUIRED"
      values={Object {}}
    />
  </div>
  <div
    className="spacing"
  >
    <SupportingEvidenceDocumentItem
      document={
        Object {
          "caseId": "NTN-21",
          "evidence": Object {
            "docReceived": false,
            "name": "Document 1",
            "rootCaseId": "NTN-21",
            "uploadCaseNumber": "NTN-21-ABS-1",
          },
          "id": 0,
        }
      }
      isActive={true}
      key="0"
      loading={false}
      onAddDocumentation={[MockFunction]}
      onDeleteDocumentation={[MockFunction]}
    />
  </div>
</Fragment>
`;
