<svg width="252" height="28" viewBox="0 0 252 28" fill="none" xmlns="http://www.w3.org/2000/svg">
<path d="M113.133 5.28027H114.012V23.4824H113.133V5.28027ZM129.876 19H123.486L126.211 6.15039H132.601L132.416 6.97656H126.932L125.903 11.8369H131.089L130.904 12.6631H125.736L124.55 18.1738H130.061L129.876 19ZM138.226 19L139.518 13.0762C139.664 12.3438 139.737 11.8691 139.737 11.6523C139.737 10.5859 139.286 10.0527 138.384 10.0527C137.763 10.0527 137.177 10.252 136.626 10.6504C136.075 11.043 135.609 11.5938 135.229 12.3027C134.848 13.0117 134.555 13.8525 134.35 14.8252L133.471 19H132.609L134.64 9.44629H135.343L135.053 11.292H135.105C135.574 10.6299 136.104 10.1318 136.696 9.79785C137.294 9.46387 137.918 9.29688 138.568 9.29688C139.189 9.29688 139.667 9.49316 140.001 9.88574C140.335 10.2783 140.511 10.8496 140.528 11.5996H140.581C141.032 10.8438 141.562 10.2725 142.172 9.88574C142.781 9.49316 143.432 9.29688 144.123 9.29688C144.809 9.29688 145.342 9.47852 145.723 9.8418C146.109 10.1992 146.303 10.7148 146.303 11.3887C146.303 11.5586 146.294 11.7256 146.276 11.8896C146.265 12.0479 146.209 12.3965 146.109 12.9355L144.773 19H143.895L145.204 13.0234C145.351 12.3203 145.424 11.8047 145.424 11.4766C145.424 11.0254 145.298 10.6768 145.046 10.4307C144.794 10.1787 144.445 10.0527 144 10.0527C143.08 10.0527 142.266 10.457 141.557 11.2656C140.854 12.0684 140.361 13.1289 140.08 14.4473L139.122 19H138.226ZM151.752 19.1406C150.404 19.1406 149.587 18.499 149.3 17.2158H149.265C149.188 17.6377 148.752 19.6738 147.955 23.3242H147.085L150.038 9.44629H150.759L150.363 11.8545H150.416C150.949 10.958 151.521 10.3018 152.13 9.88574C152.745 9.46973 153.416 9.26172 154.143 9.26172C154.934 9.26172 155.543 9.53418 155.971 10.0791C156.398 10.6182 156.612 11.4443 156.612 12.5576C156.612 13.7002 156.401 14.7871 155.979 15.8184C155.558 16.8496 154.978 17.6611 154.239 18.2529C153.507 18.8447 152.678 19.1406 151.752 19.1406ZM153.949 10.0527C153.439 10.0527 152.93 10.2256 152.42 10.5713C151.91 10.9111 151.436 11.4004 150.996 12.0391C150.562 12.6777 150.24 13.375 150.029 14.1309C149.818 14.8809 149.713 15.4902 149.713 15.959C149.713 16.6914 149.892 17.2803 150.249 17.7256C150.612 18.165 151.107 18.3848 151.734 18.3848C152.461 18.3848 153.12 18.1387 153.712 17.6465C154.304 17.1543 154.784 16.4424 155.153 15.5107C155.522 14.5732 155.707 13.6182 155.707 12.6455C155.707 10.917 155.121 10.0527 153.949 10.0527ZM158.977 19H158.15L161.086 5.32422H161.912L158.977 19ZM167.37 9.26172C168.425 9.26172 169.239 9.58105 169.813 10.2197C170.394 10.8525 170.684 11.7285 170.684 12.8477C170.684 14.002 170.473 15.083 170.051 16.0908C169.635 17.0928 169.063 17.8574 168.337 18.3848C167.61 18.9121 166.772 19.1758 165.823 19.1758C164.745 19.1758 163.925 18.8564 163.362 18.2178C162.806 17.5732 162.527 16.6533 162.527 15.458C162.527 14.3389 162.741 13.29 163.169 12.3115C163.597 11.333 164.174 10.5801 164.9 10.0527C165.627 9.52539 166.45 9.26172 167.37 9.26172ZM167.3 10.0176C166.573 10.0176 165.92 10.249 165.34 10.7119C164.76 11.1689 164.297 11.8281 163.951 12.6895C163.605 13.5449 163.433 14.4531 163.433 15.4141C163.433 17.418 164.259 18.4199 165.911 18.4199C166.655 18.4199 167.314 18.1943 167.889 17.7432C168.469 17.2861 168.929 16.6182 169.269 15.7393C169.614 14.8545 169.787 13.8848 169.787 12.8301C169.787 11.9277 169.573 11.2334 169.146 10.7471C168.718 10.2607 168.103 10.0176 167.3 10.0176ZM172.626 9.44629H173.505L174.226 14.2627C174.524 16.3193 174.686 17.6348 174.709 18.209H174.806C175.058 17.5938 175.603 16.5186 176.44 14.9834L179.499 9.44629H180.404L174.138 20.7842C173.716 21.5283 173.355 22.0498 173.057 22.3486C172.764 22.6475 172.43 22.8848 172.055 23.0605C171.686 23.2363 171.258 23.3242 170.771 23.3242C170.373 23.3242 169.995 23.2627 169.638 23.1396V22.3311C170.054 22.4893 170.455 22.5684 170.842 22.5684C171.311 22.5684 171.741 22.4219 172.134 22.1289C172.526 21.8418 172.907 21.3613 173.276 20.6875C173.646 20.0137 173.938 19.4746 174.155 19.0703L172.626 9.44629ZM183.753 19.1758C182.739 19.1758 181.948 18.8564 181.38 18.2178C180.812 17.5732 180.527 16.6768 180.527 15.5283C180.527 14.4678 180.735 13.4512 181.151 12.4785C181.567 11.5059 182.139 10.7324 182.865 10.1582C183.598 9.58398 184.403 9.29688 185.282 9.29688C185.95 9.29688 186.483 9.47559 186.882 9.83301C187.28 10.1904 187.479 10.6768 187.479 11.292C187.479 12.3525 186.999 13.1611 186.038 13.7178C185.083 14.2744 183.662 14.5527 181.775 14.5527H181.485C181.45 14.8105 181.433 15.0977 181.433 15.4141C181.433 16.3809 181.649 17.1191 182.083 17.6289C182.517 18.1328 183.141 18.3848 183.955 18.3848C184.729 18.3848 185.537 18.1709 186.381 17.7432V18.5693C185.561 18.9736 184.685 19.1758 183.753 19.1758ZM185.177 10.0527C184.409 10.0527 183.694 10.3926 183.032 11.0723C182.376 11.7461 181.901 12.6484 181.608 13.7793H182.039C185.068 13.7793 186.583 12.9883 186.583 11.4062C186.583 11.0137 186.454 10.6914 186.196 10.4395C185.944 10.1816 185.604 10.0527 185.177 10.0527ZM194.054 9.2793C194.458 9.2793 194.818 9.32031 195.135 9.40234L194.95 10.2197C194.675 10.1318 194.344 10.0879 193.957 10.0879C193.406 10.0879 192.882 10.2754 192.384 10.6504C191.886 11.0254 191.438 11.5879 191.039 12.3379C190.641 13.0879 190.348 13.8994 190.16 14.7725L189.281 19H188.42L190.45 9.44629H191.153L190.898 11.2393H190.951C191.379 10.6885 191.739 10.293 192.032 10.0527C192.325 9.80664 192.636 9.61621 192.964 9.48145C193.298 9.34668 193.661 9.2793 194.054 9.2793ZM209.136 9.31445C209.136 12.2441 207.349 13.709 203.774 13.709H202.008L200.874 19H199.969L202.693 6.15039H205.462C206.646 6.15039 207.554 6.42285 208.187 6.96777C208.819 7.50684 209.136 8.28906 209.136 9.31445ZM202.148 12.9004H203.827C205.304 12.9004 206.396 12.6191 207.105 12.0566C207.82 11.4883 208.178 10.5918 208.178 9.36719C208.178 7.76172 207.214 6.95898 205.286 6.95898H203.432L202.148 12.9004ZM214.849 9.26172C215.903 9.26172 216.718 9.58105 217.292 10.2197C217.872 10.8525 218.162 11.7285 218.162 12.8477C218.162 14.002 217.951 15.083 217.529 16.0908C217.113 17.0928 216.542 17.8574 215.815 18.3848C215.089 18.9121 214.251 19.1758 213.302 19.1758C212.224 19.1758 211.403 18.8564 210.841 18.2178C210.284 17.5732 210.006 16.6533 210.006 15.458C210.006 14.3389 210.22 13.29 210.647 12.3115C211.075 11.333 211.652 10.5801 212.379 10.0527C213.105 9.52539 213.929 9.26172 214.849 9.26172ZM214.778 10.0176C214.052 10.0176 213.398 10.249 212.818 10.7119C212.238 11.1689 211.775 11.8281 211.43 12.6895C211.084 13.5449 210.911 14.4531 210.911 15.4141C210.911 17.418 211.737 18.4199 213.39 18.4199C214.134 18.4199 214.793 18.1943 215.367 17.7432C215.947 17.2861 216.407 16.6182 216.747 15.7393C217.093 14.8545 217.266 13.8848 217.266 12.8301C217.266 11.9277 217.052 11.2334 216.624 10.7471C216.196 10.2607 215.581 10.0176 214.778 10.0176ZM225.29 9.2793C225.694 9.2793 226.055 9.32031 226.371 9.40234L226.187 10.2197C225.911 10.1318 225.58 10.0879 225.193 10.0879C224.643 10.0879 224.118 10.2754 223.62 10.6504C223.122 11.0254 222.674 11.5879 222.275 12.3379C221.877 13.0879 221.584 13.8994 221.396 14.7725L220.518 19H219.656L221.687 9.44629H222.39L222.135 11.2393H222.188C222.615 10.6885 222.976 10.293 223.269 10.0527C223.562 9.80664 223.872 9.61621 224.2 9.48145C224.534 9.34668 224.897 9.2793 225.29 9.2793ZM231.732 9.44629L231.574 10.1582H229.087L227.9 15.7393C227.771 16.3193 227.707 16.7998 227.707 17.1807C227.707 17.9951 228.076 18.4023 228.814 18.4023C229.213 18.4023 229.658 18.3262 230.15 18.1738V18.9297C229.559 19.0938 229.061 19.1758 228.656 19.1758C228.076 19.1758 227.628 19.0176 227.312 18.7012C226.995 18.3789 226.837 17.9131 226.837 17.3037C226.837 16.876 226.922 16.2725 227.092 15.4932L228.226 10.1582H226.626L226.749 9.56934L228.366 9.41992L229.219 7.19629H229.702L229.219 9.44629H231.732ZM236.804 9.29688C238.163 9.29688 238.98 9.93848 239.256 11.2217H239.309L239.827 9.44629H240.53L238.518 19H237.797L238.192 16.5918H238.14C237.647 17.4238 237.1 18.0625 236.496 18.5078C235.893 18.9531 235.198 19.1758 234.413 19.1758C232.767 19.1758 231.943 18.0801 231.943 15.8887C231.943 14.7344 232.163 13.6328 232.603 12.584C233.042 11.5352 233.628 10.7266 234.36 10.1582C235.099 9.58398 235.913 9.29688 236.804 9.29688ZM234.615 18.3848C235.137 18.3848 235.655 18.2031 236.171 17.8398C236.692 17.4766 237.158 16.9902 237.568 16.3809C237.984 15.7715 238.301 15.0977 238.518 14.3594C238.734 13.6211 238.843 12.9971 238.843 12.4873C238.843 12.0244 238.767 11.6113 238.614 11.248C238.462 10.8789 238.236 10.5889 237.938 10.3779C237.639 10.1611 237.267 10.0527 236.821 10.0527C236.095 10.0527 235.438 10.293 234.853 10.7734C234.267 11.2539 233.786 11.9746 233.411 12.9355C233.036 13.8906 232.849 14.8428 232.849 15.792C232.849 16.6826 232.995 17.3389 233.288 17.7607C233.581 18.1768 234.023 18.3848 234.615 18.3848ZM242.508 19H241.682L244.617 5.32422H245.443L242.508 19Z" fill="white"/>
<path d="M31.8 18H29.4V6.60004H36V8.60004H31.8V11.5H35.7V13.5H31.8V18V18Z" fill="white"/>
<path d="M39.2 18V6.60004H41.6V18H39.2Z" fill="white"/>
<path d="M55.8 18H52.7L47.7 9.40004H47.6C47.7 10.9 47.7 12 47.7 12.7V18H45.5V6.60004H48.6L53.6 15.2H53.7C53.6 13.7 53.6 12.7 53.6 12.1V6.60004H55.8V18Z" fill="white"/>
<path d="M66.7 14.8C66.7 15.8 66.3 16.6 65.6 17.2C64.9 17.8 63.8 18.1 62.5 18.1C61.3 18.1 60.2 17.9 59.3 17.4V15.1C60.1 15.4 60.7 15.7 61.3 15.8C61.8 15.9 62.3 16 62.8 16C63.3 16 63.7 15.9 64 15.7C64.3 15.5 64.4001 15.2 64.4001 14.8C64.4001 14.6 64.3 14.4 64.2 14.2C64.1 14 63.9 13.9 63.6 13.7C63.4 13.5 62.9 13.3 62.1 12.9C61.4 12.6 60.9 12.3 60.5 12C60.2 11.7 59.9001 11.3 59.7001 10.9C59.5001 10.5 59.4001 10 59.4001 9.50001C59.4001 8.50001 59.7001 7.70001 60.4001 7.10001C61.1001 6.50001 62.0001 6.20001 63.2001 6.20001C63.8001 6.20001 64.4001 6.30001 64.9001 6.40001C65.4001 6.50001 66 6.70001 66.6 7.00001L65.8001 8.90001C65.2001 8.60001 64.7001 8.50001 64.3001 8.40001C63.9001 8.30001 63.5 8.30001 63.1 8.30001C62.6 8.30001 62.3 8.40001 62 8.60001C61.8 8.80001 61.6 9.10001 61.6 9.40001C61.6 9.60001 61.6001 9.80001 61.7001 10C61.8001 10.2 62.0001 10.3 62.2001 10.5C62.4001 10.6 62.9001 10.9 63.7001 11.3C64.8001 11.8 65.5001 12.3 65.9001 12.8C66.5001 13.5 66.7 14.1 66.7 14.8Z" fill="white"/>
<path d="M79.3 6.60004V14C79.3 14.8 79.1 15.6 78.7 16.2C78.3 16.8 77.8 17.3 77.1 17.7C76.4 18 75.5 18.2 74.6 18.2C73.1 18.2 72 17.8 71.2 17.1C70.4 16.3 70 15.3 70 14V6.60004H72.4V13.6C72.4 14.5 72.6 15.1 72.9 15.5C73.3 15.9 73.8 16.1 74.7 16.1C75.5 16.1 76.1 15.9 76.4 15.5C76.7 15.1 76.9 14.4 76.9 13.6V6.60004H79.3V6.60004Z" fill="white"/>
<path d="M85.7 13.6V18H83.3V6.60004H86.6C88.2 6.60004 89.3 6.90004 90 7.40004C90.7 8.00004 91.1 8.80004 91.1 10C91.1 10.7 90.9 11.3 90.5 11.8C90.1 12.3 89.6 12.7 88.9 13C90.6 15.6 91.7 17.2 92.3 18H89.6L87 13.6H85.7ZM85.7 11.6H86.5C87.3 11.6 87.8 11.5 88.2 11.2C88.6 10.9 88.7 10.5 88.7 10C88.7 9.50004 88.5 9.10004 88.1 8.80004C87.7 8.60004 87.2 8.50004 86.4 8.50004H85.7V11.6Z" fill="white"/>
<path d="M102.8 18H95.2V6.60004H101.8V8.60004H97.6V11.1H101.5V13.1H97.6V16H101.8L102.8 18Z" fill="white"/>
<path d="M11.2 8.80001L14.8 10.9V15L11.2 17.1L7.6 15V10.8L11.2 8.80001ZM11.2 5.20001L4.5 9.00001V16.7L11.2 20.6L17.9 16.7V9.00001L11.2 5.20001Z" fill="white"/>
<path opacity="0.8" d="M19 8.40002L22.4 6.50002L18.9 4.40002L15.5 6.40002L18.4 8.10002L19 8.40002Z" fill="white"/>
<path d="M19 9V12.4L22.4 10.5V6.5L19 8.4V9Z" fill="white"/>
<path opacity="0.8" d="M19 17.4L22.4 19.4V15.4L19 13.4V16.8V17.4Z" fill="white"/>
<path d="M19 17.4L18.4 17.7L15.5 19.4L18.9 21.4L22.4 19.4L19 17.4Z" fill="white"/>
<path opacity="0.8" d="M11.2 21.9V25.8L14.6 23.8V19.9L11.7 21.6L11.2 21.9Z" fill="white"/>
<path d="M10.6 21.6L7.70001 19.9V23.8L11.2 25.8V21.9L10.6 21.6Z" fill="white"/>
<path opacity="0.8" d="M3.4 17.4L0 19.4L3.5 21.4L6.8 19.4L3.9 17.7L3.4 17.4Z" fill="white"/>
<path d="M3.4 16.8V13.4L0 15.4V19.4L3.4 17.4V16.8Z" fill="white"/>
<path opacity="0.8" d="M3.4 8.4L0 6.5V10.5L3.4 12.4V9V8.4Z" fill="white"/>
<path d="M3.4 8.40002L3.9 8.10002L6.8 6.40002L3.5 4.40002L0 6.50002L3.4 8.40002Z" fill="white"/>
<path opacity="0.8" d="M11.2 3.9V0L7.70001 2V5.9L10.6 4.2L11.2 3.9Z" fill="white"/>
<path d="M11.7 4.2L14.6 5.9V2L11.2 0V3.9L11.7 4.2Z" fill="white"/>
</svg>
