// Jest Snapshot v1, https://goo.gl/fbAQLP

exports[`RequestDetailsView render -- SNAPSHOT 1`] = `
<Fragment>
  <WithFormik(RequestDetailsFormView)
    forms={
      Array [
        Object {
          "id": "PREGNANCY_POSTPARTUM",
          "layout": Array [
            Object {
              "answerType": "OPTIONS",
              "id": "IS_OVERNIGHT_HOSPITAL_STAY",
              "options": Array [
                Object {
                  "id": "NO",
                },
                Object {
                  "id": "YES",
                  "targetFormId": "OVERNIGHT_STAY_MEDICAL_TREATMENT",
                },
              ],
            },
            Object {
              "answerType": "DATE",
              "id": "ACTUAL_DELIVERY_DATE",
            },
            Object {
              "answerType": "COUNT",
              "id": "NEWBORN_COUNT",
            },
            Object {
              "answerType": "OPTIONS",
              "id": "PREGNANCY_DELIVERY",
              "options": Array [
                Object {
                  "id": "PREGNANCY_DELIVERY_UNKNOWN",
                },
                Object {
                  "id": "PREGNANCY_DELIVERY_VAGINAL",
                },
                Object {
                  "id": "PREGNANCY_DELIVERY_CSECTION",
                },
                Object {
                  "id": "PREGNANCY_DELIVERY_MULTIPLE",
                },
              ],
            },
            Object {
              "answerType": "OPTIONS",
              "id": "PREGNANCY_POSTNATAL_COMPLICATIONS",
              "options": Array [
                Object {
                  "id": "NO",
                },
                Object {
                  "id": "YES",
                  "targetFormId": "PREGNANCY_POSTPARTUM_COMPLICATION_DETAILS",
                },
              ],
            },
            Object {
              "answerType": "LONG_TEXT",
              "id": "SICKNESS_ADDITIONAL_COMMENTS",
            },
          ],
        },
      ]
    }
    isActive={true}
    loading={false}
    submitStep={[MockFunction]}
  />
</Fragment>
`;
