{
  "absenceEvents": [
    {
      "id": "id-1",
      "eventDate": "2020-02-10",
      "eventName": "Leave Request Approved",
      "adminGroup": "Engineering | Tampa, FL",
      "notificationReason": {
        "domainId": 290,
        "fullId": 9280003,
        "name": "Accident or treatment required for an injury",
        "domainName": "NotificationReason"
      },
      "employee": {
        "id": "id-5",
        "firstName": "Matthew",
        "lastName": "Cartoon",
        "initials": "MC"
      },
      "notificationCase": {
        "caseReference": "NTN-121",
        "id": "id-1",
        "links": {}
      }
    },
    {
      "id": "id-2",
      "employee": {
        "id": "id-5",
        "firstName": "Matthew",
        "lastName": "Cartoon",
        "initials": "MC"
      },
      "adminGroup": "Engineering | Tampa, FL",
      "notificationReason": {
        "domainId": 290,
        "fullId": 9280003,
        "name": "Accident or treatment required for an injury",
        "domainName": "NotificationReason"
      },
      "notificationCase": {
        "caseReference": "NTN-121",
        "id": "id-2",
        "links": {}
      },
      "eventName": "Leave Request Approved",
      "eventDate": "2020-02-07"
    },
    {
      "id": "id-3",
      "employee": {
        "id": "id-5",
        "firstName": "Matthew",
        "lastName": "Cartoon",
        "initials": "MC"
      },
      "adminGroup": "Sales | All regions",
      "notificationReason": {
        "domainId": 290,
        "fullId": 9280003,
        "name": "Accident or treatment required for an injury",
        "domainName": "NotificationReason"
      },
      "notificationCase": {
        "caseReference": "NTN-121",
        "id": "id-3",
        "links": {}
      },
      "eventName": "Leave Request Approved",
      "eventDate": "2020-02-10"
    },
    {
      "id": "id-4",
      "employee": {
        "id": "id-5",
        "firstName": "Matthew",
        "lastName": "Cartoon",
        "initials": "MC"
      },
      "adminGroup": "Sales | All regions",
      "notificationReason": {
        "domainId": 290,
        "fullId": 9280003,
        "name": "Pregnancy, birth or related medical treatment",
        "domainName": "NotificationReason"
      },
      "notificationCase": {
        "caseReference": "NTN-1",
        "id": "id-4",
        "links": {}
      },
      "eventName": "Leave Request Approved",
      "eventDate": "2020-02-15"
    },
    {
      "id": "id-5",
      "employee": {
        "id": "id-3",
        "firstName": "Kylo",
        "lastName": "Ren",
        "initials": "MC"
      },
      "adminGroup": "Sales | All regions",
      "notificationReason": {
        "domainId": 290,
        "fullId": 9280003,
        "name": "Pregnancy, birth or related medical treatment",
        "domainName": "NotificationReason"
      },
      "notificationCase": {
        "caseReference": "NTN-1",
        "id": "id-5",
        "links": {}
      },
      "eventName": "Leave Request Approved",
      "eventDate": "2020-02-20"
    },
    {
      "id": "id-6",
      "employee": {
        "id": "id-3",
        "firstName": "Kylo",
        "lastName": "Ren",
        "initials": "MC"
      },
      "adminGroup": "Engineering | Miami, FL",
      "notificationReason": {
        "domainId": 290,
        "fullId": 9280003,
        "name": "Pregnancy, birth or related medical treatment",
        "domainName": "NotificationReason"
      },
      "notificationCase": {
        "caseReference": "NTN-1",
        "id": "id-6",
        "links": {}
      },
      "eventName": "Leave Request Approved",
      "eventDate": "2020-02-27"
    },
    {
      "id": "id-7",
      "employee": {
        "id": "id-3",
        "firstName": "Kylo",
        "lastName": "Ren",
        "initials": "MC"
      },
      "adminGroup": "Engineering | Miami, FL",
      "notificationReason": {
        "domainId": 290,
        "fullId": 9280003,
        "name": "Pregnancy, birth or related medical treatment",
        "domainName": "NotificationReason"
      },
      "notificationCase": {
        "caseReference": "NTN-1",
        "id": "id-6",
        "links": {}
      },
      "eventName": "Leave Request Approved",
      "eventDate": "2020-02-28"
    },
    {
      "id": "id-8",
      "employee": {
        "id": "id-3",
        "firstName": "Kylo",
        "lastName": "Ren",
        "initials": "MC"
      },
      "adminGroup": "Engineering | Miami, FL",
      "notificationReason": {
        "domainId": 290,
        "fullId": 9280003,
        "name": "Accident or treatment required for an injury",
        "domainName": "NotificationReason"
      },
      "notificationCase": {
        "caseReference": "NTN-1",
        "id": "id-7",
        "links": {}
      },
      "eventName": "Leave Request Denied",
      "eventDate": "2020-03-10"
    },
    {
      "id": "id-9",
      "employee": {
        "id": "id-5",
        "firstName": "Matthew",
        "lastName": "Cartoon",
        "initials": "MC"
      },
      "adminGroup": "Engineering | Tampa, FL",
      "notificationReason": {
        "domainId": 290,
        "fullId": 9280003,
        "name": "Accident or treatment required for an injury",
        "domainName": "NotificationReason"
      },
      "notificationCase": {
        "caseReference": "NTN-747",
        "id": "id-8",
        "links": {}
      },
      "eventName": "Leave Request Denied",
      "eventDate": "2020-03-16"
    },
    {
      "id": "id-10",
      "employee": {
        "id": "id-5",
        "firstName": "Matthew",
        "lastName": "Cartoon",
        "initials": "MC"
      },
      "adminGroup": "Engineering | Tampa, FL",
      "notificationReason": {
        "domainId": 290,
        "fullId": 9280003,
        "name": "Accident or treatment required for an injury",
        "domainName": "NotificationReason"
      },
      "notificationCase": {
        "caseReference": "NTN-747",
        "id": "id-9",
        "links": {}
      },
      "eventName": "Leave Request Denied",
      "eventDate": "2020-03-18"
    },
    {
      "id": "id-11",
      "employee": {
        "id": "id-5",
        "firstName": "Matthew",
        "lastName": "Cartoon",
        "initials": "MC"
      },
      "adminGroup": "Engineering | Tampa, FL",
      "notificationReason": {
        "domainId": 290,
        "fullId": 9280003,
        "name": "Accident or treatment required for an injury",
        "domainName": "NotificationReason"
      },
      "notificationCase": {
        "caseReference": "NTN-747",
        "id": "id-10",
        "links": {}
      },
      "eventName": "Leave Request Denied",
      "eventDate": "2020-03-19"
    },
    {
      "id": "id-12",
      "employee": {
        "id": "id-3",
        "firstName": "Kylo",
        "lastName": "Ren",
        "initials": "MC"
      },
      "adminGroup": "Engineering | Tampa, FL",
      "notificationReason": {
        "domainId": 290,
        "fullId": 9280003,
        "name": "Accident or treatment required for an injury",
        "domainName": "NotificationReason"
      },
      "notificationCase": {
        "caseReference": "NTN-747",
        "id": "id-11",
        "links": {}
      },
      "eventName": "Leave Request Denied",
      "eventDate": "2020-03-19"
    },
    {
      "id": "id-13",
      "employee": {
        "id": "id-3",
        "firstName": "Kylo",
        "lastName": "Ren",
        "initials": "MC"
      },
      "adminGroup": "Engineering | Tampa, FL",
      "notificationReason": {
        "domainId": 290,
        "fullId": 9280003,
        "name": "Accident or treatment required for an injury",
        "domainName": "NotificationReason"
      },
      "notificationCase": {
        "caseReference": "NTN-747",
        "id": "id-12",
        "links": {}
      },
      "eventName": "Leave Request Approved",
      "eventDate": "2020-03-07"
    },
    {
      "id": "id-14",
      "employee": {
        "id": "id-4",
        "firstName": "Obi Wan",
        "lastName": "Kenobi",
        "initials": "MC"
      },
      "adminGroup": "Engineering | Tampa, FL",
      "notificationReason": {
        "domainId": 290,
        "fullId": 9280003,
        "name": "Accident or treatment required for an injury",
        "domainName": "NotificationReason"
      },
      "notificationCase": {
        "caseReference": "NTN-747",
        "id": "id-13",
        "links": {}
      },
      "eventName": "Leave Request Denied",
      "eventDate": "2020-04-19"
    },
    {
      "id": "id-15",
      "employee": {
        "id": "id-4",
        "firstName": "Obi Wan",
        "lastName": "Kenobi",
        "initials": "MC"
      },
      "adminGroup": "Engineering | Miami, FL",
      "notificationReason": {
        "domainId": 290,
        "fullId": 9280003,
        "name": "Pregnancy, birth or related medical treatment",
        "domainName": "NotificationReason"
      },
      "notificationCase": {
        "caseReference": "NTN-24",
        "id": "id-14",
        "links": {}
      },
      "eventName": "Leave Request Approved",
      "eventDate": "2020-03-28"
    },
    {
      "id": "id-16",
      "employee": {
        "id": "id-4",
        "firstName": "Obi Wan",
        "lastName": "Kenobi",
        "initials": "MC"
      },
      "adminGroup": "Engineering | Miami, FL",
      "notificationReason": {
        "domainId": 290,
        "fullId": 9280003,
        "name": "Pregnancy, birth or related medical treatment",
        "domainName": "NotificationReason"
      },
      "notificationCase": {
        "caseReference": "NTN-24",
        "id": "id-6",
        "links": {}
      },
      "eventName": "Leave Request Approved",
      "eventDate": "2020-03-27"
    },
    {
      "id": "id-17",
      "employee": {
        "id": "id-4",
        "firstName": "Obi Wan",
        "lastName": "Kenobi",
        "initials": "MC"
      },
      "adminGroup": "Engineering | Tampa, FL",
      "notificationReason": {
        "domainId": 290,
        "fullId": 9280003,
        "name": "Accident or treatment required for an injury",
        "domainName": "NotificationReason"
      },
      "notificationCase": {
        "caseReference": "NTN-24",
        "id": "id-13",
        "links": {}
      },
      "eventName": "Leave Request Denied",
      "eventDate": "2020-05-19"
    },
    {
      "id": "id-18",
      "employee": {
        "id": "id-4",
        "firstName": "Obi Wan",
        "lastName": "Kenobi",
        "initials": "MC"
      },
      "adminGroup": "Engineering | Tampa, FL",
      "notificationReason": {
        "domainId": 290,
        "fullId": 9280003,
        "name": "Accident or treatment required for an injury",
        "domainName": "NotificationReason"
      },
      "notificationCase": {
        "caseReference": "NTN-24",
        "id": "id-13",
        "links": {}
      },
      "eventName": "Leave Request Approved",
      "eventDate": "2020-05-20"
    },
    {
      "id": "id-19",
      "employee": {
        "id": "id-4",
        "firstName": "Obi Wan",
        "lastName": "Kenobi",
        "initials": "MC"
      },
      "adminGroup": "Engineering | Miami, FL",
      "notificationReason": {
        "domainId": 290,
        "fullId": 9280003,
        "name": "Out of work for another reason",
        "domainName": "NotificationReason"
      },
      "notificationCase": {
        "caseReference": "NTN-24",
        "id": "id-13",
        "links": {}
      },
      "eventName": "Leave Request Approved",
      "eventDate": "2020-05-21"
    },
    {
      "id": "id-20",
      "employee": {
        "id": "id-5",
        "firstName": "Matthew",
        "lastName": "Cartoon",
        "initials": "MC"
      },
      "adminGroup": "Engineering | Tampa, FL",
      "notificationReason": {
        "domainId": 290,
        "fullId": 9280003,
        "name": "Out of work for another reason",
        "domainName": "NotificationReason"
      },
      "notificationCase": {
        "caseReference": "NTN-24",
        "id": "id-13",
        "links": {}
      },
      "eventName": "Leave Request Approved",
      "eventDate": "2020-06-21"
    },
    {
      "id": "id-21",
      "employee": {
        "id": "id-5",
        "firstName": "Matthew",
        "lastName": "Cartoon",
        "initials": "MC"
      },
      "adminGroup": "Engineering | Tampa, FL",
      "notificationReason": {
        "domainId": 290,
        "fullId": 9280003,
        "name": "Out of work for another reason",
        "domainName": "NotificationReason"
      },
      "notificationCase": {
        "caseReference": "NTN-24",
        "id": "id-13",
        "links": {}
      },
      "eventName": "Leave Request Approved",
      "eventDate": "2020-06-22"
    },
    {
      "id": "id-22",
      "employee": {
        "id": "id-5",
        "firstName": "Matthew",
        "lastName": "Cartoon",
        "initials": "MC"
      },
      "adminGroup": "Engineering | Tampa, FL",
      "notificationReason": {
        "domainId": 290,
        "fullId": 9280003,
        "name": "Out of work for another reason",
        "domainName": "NotificationReason"
      },
      "notificationCase": {
        "caseReference": "NTN-24",
        "id": "id-13",
        "links": {}
      },
      "eventName": "Leave Request Denied",
      "eventDate": "2020-06-23"
    },
    {
      "id": "id-23",
      "employee": {
        "id": "id-5",
        "firstName": "Matthew",
        "lastName": "Cartoon",
        "initials": "MC"
      },
      "adminGroup": "Engineering | Miami, FL",
      "notificationReason": {
        "domainId": 290,
        "fullId": 9280003,
        "name": "Out of work for another reason",
        "domainName": "NotificationReason"
      },
      "notificationCase": {
        "caseReference": "NTN-24",
        "id": "id-13",
        "links": {}
      },
      "eventName": "Leave Request Denied",
      "eventDate": "2020-06-24"
    },
    {
      "id": "id-24",
      "employee": {
        "id": "id-5",
        "firstName": "Matthew",
        "lastName": "Cartoon",
        "initials": "MC"
      },
      "adminGroup": "Engineering | Tampa, FL",
      "notificationReason": {
        "domainId": 290,
        "fullId": 9280003,
        "name": "Out of work for another reason",
        "domainName": "NotificationReason"
      },
      "notificationCase": {
        "caseReference": "NTN-120",
        "id": "id-13",
        "links": {}
      },
      "eventName": "Leave Request Denied",
      "eventDate": "2020-06-25"
    },
    {
      "id": "id-25",
      "employee": {
        "id": "id-5",
        "firstName": "Matthew",
        "lastName": "Cartoon",
        "initials": "MC"
      },
      "adminGroup": "Engineering | Miami, FL",
      "notificationReason": {
        "domainId": 290,
        "fullId": 9280003,
        "name": "Out of work for another reason",
        "domainName": "NotificationReason"
      },
      "notificationCase": {
        "caseReference": "NTN-120",
        "id": "id-13",
        "links": {}
      },
      "eventName": "Leave Request Denied",
      "eventDate": "2020-06-26"
    }
  ]
}
