{
  "customerOccupations": [
    {
      "id": "CO-1",
      "orgUnitName": "Jedi",
      "worksiteName": "Tatooine",
      "workPatternBasis": "Week Based",
      "altEmploymentCat": {
        "domainId": 167,
        "fullId": 5344000,
        "name": "Unknown",
        "domainName": "OCOccupation AltEmploymentCat"
      },
      "daysWorkedPerWeek": "5",
      "employeeIdentifier": "",
      "empLocationCode": {
        "domainId": 166,
        "fullId": 5312048,
        "name": "NY",
        "domainName": "OCOccupation EmpLocationCode"
      },
      "employmentCat": {
        "name": "Full time",
        "domainId": 145,
        "fullId": 4640001,
        "domainName": "Employment Category"
      },
      "employmentStatus": {
        "domainId": 175,
        "fullId": 5600003,
        "name": "Active",
        "domainName": "OCOccupation EmploymentStatus"
      },
      "employmentTitle": {
        "domainId": 177,
        "fullId": 5664000,
        "name": "Unknown",
        "domainName": "OCOccupation EmploymentTitle"
      },
      "endPosCode": {
        "domainId": 162,
        "fullId": 5184000,
        "name": "Unknown",
        "domainName": "OCOccupation End Position Code"
      },
      "endPosReason": "",
      "hrsWorkedPerWeek": "40",
      "jobDesc": "",
      "jobEndDate": "",
      "jobStartDate": "2020-01-13",
      "jobStrenuous": {
        "domainId": 160,
        "fullId": 5120000,
        "name": "Unknown",
        "domainName": "OCOccupation Job Strenuousness"
      },
      "jobTitle": "Master",
      "overrideDaysWorkedPerWeek": false,
      "remarks": "",
      "workSchDesc": ""
    }
  ]
}
