{
  "documents": [
    {
      "caseId": "NTN-24",
      "rootCaseId": "NTN-24",
      "documentId": 1,
      "name": "Snapshot Document",
      "type": "Document",
      "fileExtension": ".html",
      "fileName": "ceddad2e-d786-48cb-ad1b-dd21bb5830a7.html",
      "originalFilename": "NTN-24-Notification-2020-03-06-14_13_46-Notification Case Intake Wizard-Intake.html",
      "receivedDate": "2020-01-30",
      "effectiveFrom": "",
      "effectiveTo": "",
      "description": "Notification Case Intake Wizard",
      "title": "",
      "isRead": false,
      "status": "Completed",
      "privacyTag": "Unknown",
      "createdBy": "Darth Vader",
      "dateCreated": "2020-03-06",
      "readForMyOrganisation": false
    },
    {
      "caseId": "NTN-24",
      "rootCaseId": "NTN-24",
      "documentId": 2,
      "name": "Claim denial letter",
      "type": "Document",
      "fileExtension": ".html",
      "fileName": "ceddad2e-d786-48cb-ad1b-dd21bb5830a7.html",
      "originalFilename": "NTN-24-Notification-2020-03-06-14_13_46-Claim denial letter.html",
      "receivedDate": "2020-01-30",
      "effectiveFrom": "",
      "effectiveTo": "",
      "description": "Notification Case Intake Wizard",
      "title": "Claim denial letter",
      "isRead": true,
      "status": "Completed",
      "privacyTag": "Unknown",
      "createdBy": "Darth Vader",
      "dateCreated": "2020-03-06",
      "readForMyOrganisation": false
    }
  ]
}
