{
  "users": [
    {
      "id": "1",
      "userReferenceIdentifier": "id-3",
      "enabled": true,
      "status": {
        "domainId": 1001,
        "fullId": 32032001,
        "name": "Active",
        "domainName": "Account Status",
        "_links": {
          "domain": "http://api.server.context/enum-domains/1001",
          "instance": "http://api.server.context/enum-domains/1001/enum-instances/32032001"
        }
      },
      "role": {
        "name": "HR Manager"
      },
      "nameOfUser": "Kylo Ren"
    },
    {
      "id": "2",
      "userReferenceIdentifier": "id-4",
      "enabled": false,
      "status": {
        "domainId": 1001,
        "fullId": 32032002,
        "name": "Disabled - Manually",
        "domainName": "Account Status",
        "_links": {
          "domain": "http://api.server.context/enum-domains/1001",
          "instance": "http://api.server.context/enum-domains/1001/enum-instances/32032002"
        }
      },
      "role": {
        "name": "HR Department"
      },
      "nameOfUser": "Obi Wan Kenobi"
    },
    {
      "id": "3",
      "userReferenceIdentifier": "id-5",
      "enabled": true,
      "status": {
        "domainId": 1001,
        "fullId": 32032001,
        "name": "Active",
        "domainName": "Account Status",
        "_links": {
          "domain": "http://api.server.context/enum-domains/1001",
          "instance": "http://api.server.context/enum-domains/1001/enum-instances/32032001"
        }
      },
      "role": {
        "name": "Payroll Specialist"
      },
      "nameOfUser": "Mathew Cartoon"
    }
  ]
}
