<svg viewBox="0 0 29 29" xmlns="http://www.w3.org/2000/svg">
<circle cx="14.5" cy="14.5" r="14.5" fill="currentColor"/>
<path d="M14.5 10.8217L17.2322 12.4496V15.6279L14.5 17.2558L11.7679 15.6279V12.3721L14.5 10.8217ZM14.5 8.03101L9.41519 10.9767V16.9457L14.5 19.969L19.5848 16.9457V10.9767L14.5 8.03101Z" fill="white"/>
<path opacity="0.8" d="M20.4197 10.5117L23 9.0388L20.3438 7.41089L17.7634 8.96128L19.9643 10.2791L20.4197 10.5117Z" fill="white"/>
<path d="M20.4197 10.9768V13.6125L23 12.1396V9.03882L20.4197 10.5117V10.9768Z" fill="white"/>
<path opacity="0.8" d="M20.4197 17.4883L23 19.0387V15.938L20.4197 14.3876V17.0232V17.4883Z" fill="white"/>
<path d="M20.4197 17.4884L19.9643 17.721L17.7634 19.0388L20.3438 20.5892L23 19.0388L20.4197 17.4884Z" fill="white"/>
<path opacity="0.8" d="M14.5 20.9768V24L17.0804 22.4496V19.4264L14.8795 20.7442L14.5 20.9768Z" fill="white"/>
<path d="M14.0446 20.7442L11.8438 19.4264V22.4496L14.5 24V20.9768L14.0446 20.7442Z" fill="white"/>
<path opacity="0.8" d="M8.58036 17.4884L6 19.0388L8.65625 20.5892L11.1607 19.0388L8.95982 17.721L8.58036 17.4884Z" fill="white"/>
<path d="M8.58036 17.0232V14.3876L6 15.938V19.0387L8.58036 17.4883V17.0232Z" fill="white"/>
<path opacity="0.8" d="M8.58036 10.5117L6 9.03882V12.1396L8.58036 13.6125V10.9768V10.5117Z" fill="white"/>
<path d="M8.58036 10.5117L8.95982 10.2791L11.1607 8.96128L8.65625 7.41089L6 9.0388L8.58036 10.5117Z" fill="white"/>
<path opacity="0.8" d="M14.5 7.02326V4L11.8438 5.55039V8.57364L14.0446 7.25581L14.5 7.02326Z" fill="white"/>
<path d="M14.8795 7.25581L17.0804 8.57364V5.55039L14.5 4V7.02326L14.8795 7.25581Z" fill="white"/>
</svg>
