// Jest Snapshot v1, https://goo.gl/fbAQLP

exports[`RecentMessagesList render -- SNAPSHOT 1`] = `
<div
  className="wrapper"
  data-test-el="recent-messages-list"
>
  <NavLink
    className="link"
    key="0"
    to={
      Object {
        "pathname": "/my-messages/NTN-1",
        "search": "?messageId=1",
      }
    }
  >
    <Card
      bordered={false}
      className="messageWrapper"
      data-test-el="recent-messages-list-element"
    >
      <MessageListElement
        chooseLogo={[Function]}
        message={
          Object {
            "caseId": "CLM-1",
            "contactTime": "2017-09-25T14:16:23.279",
            "messageId": 1,
            "msgOriginatesFromPortal": true,
            "narrative": "Lorem ipsum dolor sit amet, consectetur adipiscing elit.",
            "read": false,
            "subject": "Phasellus aliquet tristique maximus testowyTekst",
          }
        }
        showRelatesTo={false}
      />
    </Card>
  </NavLink>
  <NavLink
    className="link"
    key="1"
    to={
      Object {
        "pathname": "/my-messages/NTN-1",
        "search": "?messageId=2",
      }
    }
  >
    <Card
      bordered={false}
      className="messageWrapper"
      data-test-el="recent-messages-list-element"
    >
      <MessageListElement
        chooseLogo={[Function]}
        message={
          Object {
            "caseId": "ABS-7",
            "contactTime": "2017-10-01T09:45:23.279",
            "messageId": 2,
            "msgOriginatesFromPortal": false,
            "narrative": "testowyTekst Aliquam auctor a ligula non imperdiet.",
            "read": true,
            "subject": "Etiam vitae est at ex feugiat condimentum",
          }
        }
        showRelatesTo={false}
      />
    </Card>
  </NavLink>
  <NavLink
    className="link"
    key="2"
    to={
      Object {
        "pathname": "/my-messages/NTN-1",
        "search": "?messageId=3",
      }
    }
  >
    <Card
      bordered={false}
      className="messageWrapper"
      data-test-el="recent-messages-list-element"
    >
      <MessageListElement
        chooseLogo={[Function]}
        message={
          Object {
            "caseId": "CLM-2",
            "contactTime": "2017-10-03T10:13:23.279",
            "messageId": 3,
            "msgOriginatesFromPortal": true,
            "narrative": "Cras vulputate varius odio, eget aliquet tellus ultricies sit amet.",
            "read": true,
            "subject": "Maecenas vitae magna neque",
          }
        }
        showRelatesTo={false}
      />
    </Card>
  </NavLink>
  <NavLink
    className="link"
    key="3"
    to={
      Object {
        "pathname": "/my-messages/NTN-1",
        "search": "?messageId=4",
      }
    }
  >
    <Card
      bordered={false}
      className="messageWrapper"
      data-test-el="recent-messages-list-element"
    >
      <MessageListElement
        chooseLogo={[Function]}
        message={
          Object {
            "caseId": "CLM-3",
            "contactTime": "2017-10-04T18:47:23.279",
            "messageId": 4,
            "msgOriginatesFromPortal": true,
            "narrative": "Fusce a orci aliquam, vulputate erat id, gravida eros.",
            "read": false,
            "subject": "Sed lacinia mi nec felis elementum vehicula",
          }
        }
        showRelatesTo={false}
      />
    </Card>
  </NavLink>
  <NavLink
    className="link"
    key="4"
    to={
      Object {
        "pathname": "/my-messages/NTN-1",
        "search": "?messageId=5",
      }
    }
  >
    <Card
      bordered={false}
      className="messageWrapper"
      data-test-el="recent-messages-list-element"
    >
      <MessageListElement
        chooseLogo={[Function]}
        message={
          Object {
            "caseId": "0",
            "contactTime": "2017-10-01T09:45:23.279",
            "messageId": 5,
            "msgOriginatesFromPortal": false,
            "narrative": "testowyTekst Aliquam auctor a ligula non imperdiet.",
            "read": false,
            "subject": "Etiam vitae est at ex feugiat condimentum",
          }
        }
        showRelatesTo={false}
      />
    </Card>
  </NavLink>
</div>
`;
