{
  "notification": {
    "detail": {
      "emptyState": {
        "jobProtectedLeave": {
          "empty": "We found no plans that are applicable to your request for job-protected leave. Please call us on 1800 123 4567 if you have any questions. Our call center works from Mondays to Saturdays, from 7am to 11pm.",
          "pending": "You are being assessed for job-protected leave.",
          "concluded": {
            "title": "We found no plans that are applicable to your request for job-protected leave for:",
            "subtitle": "Please call us on 1800 123 4567 if you have any questions. Our call center works from Mondays to Saturdays, from 7am to 11pm."
          }
        },
        "wageReplacement": {
          "pending": "You are being assessed for wage replacement."
        }
      }
    },
    "inProgressStatus": {
      "message": "Give us a call on 1800 123 4567 so that we can finalize your request."
    },
    "returnConfirm": {
      "expectedDateConfirmation1": "Thank you!",
      "expectedDateConfirmation2": "You have confirmed your return to work date.",
      "anotherDateConfirmation1": "Your new return to work date has been sent to us as {actualDate}.",
      "anotherDateConfirmation2": "We will review the information you provided and we will get in touch in the next few days.",
      "anotherDateConfirmation3": "If you haven't notified your employer about this change yet, we highly recommend you do so."
    },
    "requestConfirmation": {
      "requestAmendmentMessage": "We have received your request to amend this leave period. One of our Case Managers will evaluate your request and, if needed, they will contact you to get more details.",
      "requestDeletionMessage": "We have received your request to delete this leave request. You shall see the changes being applied in a couple of days",
      "supervisorAmendmentMessage": "We have received your request to change this leave period on behalf of your team member. One of our Case Managers will evaluate your request and, if needed, they will contact you and the employee to get more details.",
      "supervisorDeletionMessage": "We have received your request to delete this leave request. You and your team member shall see the changes being applied in a couple of days"
    }
  },
  "intake": {
    "wrapUp": [
      {
        "type": "successful",
        "header": "All done!",
        "phoneNumber": "1800 123 4567",
        "successNotification": "Your notification has been successfully sent and will be assigned to one of our Case Managers within the next two days. We will send you an acknowledgment letter and contact you by phone if we need more information from you.",
        "notificationReferenceMessageHeader": "Your notification reference is",
        "notificationReferenceMessageFooter": "Please use this code for future interaction with FINSURE related to your claim",
        "privacyNotice": "Privacy Notice: The information you provide to us as part of your claim application will be processed by us to confirm your identity, process your application and to record and cross reference particulars of your claim in insurance industry databases, including Insurance Link, for fraud prevention purposes. Any queries in relation to this should be referred to the Claims Manager at FINSURE. In certain cases, this may involve the sharing of your information with other insurance providers and private investigators. Guidelines for sharing of information in this regard are contained in a Code of Practice on Data Protection for the Insurance Sector which has been approved by the Data Protection Commissioner. For full details see the Data Protection Notice on our website www.finsure.com.",
        "questionMessage": "If you have any questions or wish to provide us with additional details about this request, then please contact us at our toll free number"
      },
      {
        "type": "partial-success",
        "header": "Something went wrong on our end...",
        "phoneNumber": "1800 123 4567",
        "numberMessage": "Give us a call on the number below so that we can finalize your request:",
        "availableDays": "(Mondays to Saturdays, from 7am to 11pm)",
        "tip": "Make sure you mention your notification reference when you call us.",
        "notificationReferenceMessageHeader": "Your notification reference is",
        "notificationReferenceMessageFooter": "Please use this code for future interactions with FINSURE related to your claim"
      },
      {
        "type": "failure",
        "header": "Something went wrong on our end...",
        "phoneNumber": "1800 123 4567",
        "numberMessage": "Give us a call on the number below so that we can finalize your request:",
        "availableDays": "(Mondays to Saturdays, from 7am to 11pm)"
      }
    ]
  },
  "header": {
    "branding": {
      "message": "Customer Portal"
    }
  },
  "home": {
    "welcome": {
      "message": "This is your portal. Here you can submit a new notification, send and download documents, view your payments, or contact us with general inquiries."
    },
    "action": {
      "title": "Help for what matters",
      "message": "Whether you're currently out of work, need to be out soon or need some assistance to remain at work - at FINSURE, we're here to help."
    }
  },
  "myProfile": {
    "message": "Something not matching? Give us a call on 1800 123 4567 to request a change in your details."
  },
  "myTeamLeaves": {
    "notificationsPageSize": "50",
    "employeesPageSize": "50"
  },
  "documentUpload": {
    "errorTitle": "Something went wrong on our end...",
    "uploadError": "We were not able to upload your document this time. Please try again in a few minutes.",
    "receivedError": "We've encountered a small problem while updating the Required from me list, so you might still see your document appearing as missing even though we have received it. There is nothing for you to worry about though. Your document is safe in our hands."
  }
}
