{
  "apiUrls": {
    "root": "http://summit2018-adminsuite.fineoscloud.com:8190/FineosApi/api/v2.1"
  },
  "aws": {
    "region": "eu-west-1",
    "secureBucketName": "customer-portal-dev-secure-resources",
    "secureResourceEnvPrefix": ""
  },
  "authenticationStrategy": "cognitoAuthentication",
  "authorizationRoles": {
    "absenceUser": "CustomerPortal_AbsenceEmployee_Role",
    "absenceSupervisor": "CustomerPortal_AbsenceSupervisor_Role",
    "claimsUser": "CustomerPortal_Claimant_Role"
  },
  "login": {
    "url": "https://sts-ps.fineoscloud.com/adfs/ls/IdpInitiatedSignOn.aspx?loginToRp=Summit2018"
  }
}
