[
  {
    "type": "js",
    "location": "https://media.twiliocdn.com/sdk/js/common/v0.1/twilio-common.js"
  },
  {
    "type": "js",
    "location": "https://media.twiliocdn.com/sdk/js/chat/v1.0/twilio-chat.js"
  },
  {
    "type": "js",
    "location": "https://media.twiliocdn.com/sdk/js/frame-chat/v0.3/twilio-frame-chat.min.js"
  },
  {
    "type": "js",
    "location": "https://fineos-client-staging.herokuapp.com/customer/v1/customer-widget.js"
  },
  {
    "type": "js",
    "location": "https://media.twiliocdn.com/sdk/js/frame-chat/v0.3/twilio-frame-chat.min.js"
  }
]
